dumpfile.vcd
$date
	Tue Dec  4 10:02:32 2018
$end
$version
	Icarus Verilog
$end
$timescale
	1s
$end
$scope module testbench $end
$scope module PE $end
$var wire 1 ! clk $end
$var wire 1 " pendpc $end
$var wire 1 # pendz $end
$var wire 1 $ reset $end
$var wire 16 % itof_res [15:0] $end
$var reg 1 & halt $end
$var reg 1 ' havepre $end
$var reg 16 ( im0 [15:0] $end
$var reg 16 ) ir [15:0] $end
$var reg 16 * ir0 [15:0] $end
$var reg 16 + ir1 [15:0] $end
$var reg 1 , jump $end
$var reg 16 - pc [15:0] $end
$var reg 16 . pc0 [15:0] $end
$var reg 12 / prefix [11:0] $end
$var reg 16 0 rd1 [15:0] $end
$var reg 16 1 res [15:0] $end
$var reg 16 2 rn1 [15:0] $end
$var reg 16 3 target [15:0] $end
$var reg 16 4 tpc [15:0] $end
$var reg 1 5 wait1 $end
$var reg 1 6 wait2 $end
$var reg 1 7 zreg $end
$scope function iscond $end
$var reg 16 8 inst [15:0] $end
$var reg 1 9 iscond $end
$upscope $end
$scope function setspc $end
$var reg 16 : inst [15:0] $end
$var reg 1 ; setspc $end
$upscope $end
$scope function setsrd $end
$var reg 16 < inst [15:0] $end
$var reg 1 = setsrd $end
$upscope $end
$scope function setsz $end
$var reg 16 > inst [15:0] $end
$var reg 1 ? setsz $end
$upscope $end
$scope function usesim $end
$var reg 16 @ inst [15:0] $end
$var reg 1 A usesim $end
$upscope $end
$scope function usesrd $end
$var reg 16 B inst [15:0] $end
$var reg 1 C usesrd $end
$upscope $end
$scope function usesrn $end
$var reg 16 D inst [15:0] $end
$var reg 1 E usesrn $end
$upscope $end
$scope module itof_mod $end
$var wire 1 ! clk $end
$var wire 16 F in [15:0] $end
$var wire 16 G zero_count_input [15:0] $end
$var wire 1 H sign $end
$var wire 5 I d [4:0] $end
$var reg 8 J exponent [7:0] $end
$var reg 7 K extra_zeros [6:0] $end
$var reg 23 L in_plus_zeros [22:0] $end
$var reg 7 M mantissa [6:0] $end
$var reg 16 N out [15:0] $end
$var reg 23 O twos_in_plus_zeros [22:0] $end
$scope module zero_counter $end
$var wire 16 P s [15:0] $end
$var reg 5 Q d [4:0] $end
$var reg 2 R s2 [1:0] $end
$var reg 4 S s4 [3:0] $end
$var reg 8 T s8 [7:0] $end
$upscope $end
$upscope $end
$upscope $end
$upscope $end
$enddefinitions $end
#0
$dumpvars
bx T
bx S
bx R
bx Q
bx P
bx O
bx N
bx M
bx L
b0 K
bx J
bx I
xH
bx G
bx F
xE
bx D
xC
bx B
xA
bx @
0?
b0 >
0=
b0 <
0;
b0 :
x9
bx 8
x7
x6
x5
bx 4
bx 3
bx 2
bx 1
bx 0
bx /
bx .
b0 -
0,
b0 +
b0 *
bx )
bx (
0'
0&
bx %
0$
0#
0"
0!
$end
#10
1$
#20
0$
#30
b10000 I
b10000 Q
b0 G
b0 P
b10011100001011 >
1=
b10011100001011 <
b10011100001011 :
0H
b0 .
b1 -
b10011100001011 *
b1111111111111011 (
b0 2
b0 F
b0 0
06
bx0000000 O
bx0000000 L
09
b10011100001011 8
b10011100001011 )
b0 4
1A
b10011100001011 @
05
1E
b0 D
0C
b0 B
1!
#40
0!
#50
b1 R
b101 S
b101 T
b1101 I
b1101 Q
1H
b101 G
b101 P
b10011100001011 >
b10011100001011 :
b10011100001011 +
b1111111111111011 2
b1111111111111011 F
b1 .
b10 -
b10011100010101 *
b101 (
0E
b10011100001011 D
b10011100001011 B
1=
b10011100001011 <
b10011100001011 @
b10011100010101 8
b10011100010101 )
b1 4
b0 %
b0 N
1!
#60
0!
#70
b0 >
0=
b0 <
b0 :
b1100000010100000 %
b1100000010100000 N
b10000001 J
b100000 M
b1010000000 O
b11111111111110110000000 L
b10 4
15
b0 +
16
1!
#80
0!
#90
06
1!
#100
0!
#110
b0 >
0=
b0 <
b0 :
0H
b10 .
b11 -
b0 *
b110 /
1'
b10011100010101 +
b101 2
b101 F
b110 8
b110 )
b10011100010101 @
05
b10011100010101 D
b10011100010101 B
1!
#120
0!
#130
b10000 I
b10000 Q
b0 G
b0 P
b10011100100100 >
b10011100100100 :
b0 2
b0 F
b11 .
b100 -
b10011100100100 *
0'
b1100100 (
b0 +
16
0A
1E
b0 D
b0 B
1=
b10011100100100 <
b0 @
b10011100100100 8
b10011100100100 )
b11 4
b100000010100000 %
b100000010100000 N
b11111111111110110000000 O
b1010000000 L
1!
#140
0!
#150
06
b0 %
b0 N
b100 4
15
1!
#160
0!
#170
b110 S
b1100100 T
b1001 I
b1001 Q
b1100100 G
b1100100 P
b10011100100100 +
b1100100 2
b1100100 F
1A
b10011100100100 @
05
0E
b10011100100100 D
b10011100100100 B
1=
b10011100100100 <
1!
#180
0!
#190
b0 >
0=
b0 <
b0 :
b100001011001000 %
b100001011001000 N
b10000101 J
b1001000 M
b11111111100111000000000 O
b11001000000000 L
15
b0 +
16
1!
#200
0!
#210
06
1!
#220
0!
#230
b0 >
0=
b0 <
b0 :
b100 .
b101 -
b0 *
b111111111001 /
1'
b10011100100100 +
b111111111001 8
b111111111001 )
05
1!
#240
0!
#250
b10000 I
b10000 Q
b0 G
b0 P
b10011100111100 >
b10011100111100 :
b0 2
b0 F
b101 .
b110 -
b10011100111100 *
0'
b1111111110011100 (
b0 +
16
0A
1E
b0 D
b0 B
1=
b10011100111100 <
b0 @
b10011100111100 8
b10011100111100 )
b101 4
1!
#260
0!
#270
06
b0 %
b0 N
b110 4
15
1!
#280
0!
#290
b1 R
b110 S
b1100100 T
b1001 I
b1001 Q
1H
b1100100 G
b1100100 P
b10011100111100 +
b1111111110011100 2
b1111111110011100 F
1A
b10011100111100 @
05
0E
b10011100111100 D
b10011100111100 B
1=
b10011100111100 <
1!
#300
0!
#310
b0 >
0=
b0 <
b0 :
b1100001011001000 %
b1100001011001000 N
b11001000000000 O
b11111111100111000000000 L
15
b0 +
16
1!
#320
0!
#330
06
1!
#340
0!
#350
b10011100001011 >
1=
b10011100001011 <
b10011100001011 :
b110 .
b111 -
b10011100001011 *
b1111111111111011 (
b10011100111100 +
b10011100001011 @
b10011100001011 8
b10011100001011 )
05
1!
#360
0!
#370
b1101 I
b1101 Q
b101 S
b101 T
b101 G
b101 P
b1111111111111011 2
b1111111111111011 F
b111 .
b1000 -
b10011100010101 *
b101 (
b10011100001011 >
1=
b10011100001011 :
b10011100001011 +
16
b10011100001011 D
b10011100001011 B
b10011100001011 <
b10011100001011 @
b10011100010101 8
b10011100010101 )
b111 4
1!
#380
0!
#390
b0 >
0=
b0 <
b0 :
b1100000010100000 %
b1100000010100000 N
b10000001 J
b100000 M
b1010000000 O
b11111111111110110000000 L
b1000 4
15
b0 +
1!
#400
0!
#410
06
1!
#420
0!
#430
b10011100101011 >
1=
b10011100101011 <
b10011100101011 :
0H
b1000 .
b1001 -
b10011100101011 *
b1111111111111011 (
b10011100010101 +
b101 2
b101 F
b10011100101011 8
b10011100101011 )
b10011100101011 @
05
b10011100010101 D
b10011100010101 B
1!
#440
0!
#450
b1 R
b101 S
b1101 I
b1101 Q
b101 T
1H
b101 G
b101 P
b1111111111111011 2
b1111111111111011 F
b1001 .
b1010 -
b10011100100101 *
b101 (
b10011100101011 >
1=
b10011100101011 :
b10011100101011 +
16
b10011100101011 D
b10011100101011 B
b10011100101011 <
b10011100101011 @
b10011100100101 8
b10011100100101 )
b1001 4
b100000010100000 %
b100000010100000 N
b11111111111110110000000 O
b1010000000 L
1!
#460
0!
#470
b0 >
0=
b0 <
b0 :
b1100000010100000 %
b1100000010100000 N
b1010000000 O
b11111111111110110000000 L
b1010 4
15
b0 +
1!
#480
0!
#490
06
1!
#500
0!
#510
b10011101001011 >
1=
b10011101001011 <
b10011101001011 :
0H
b1010 .
b1011 -
b10011101001011 *
b1111111111111011 (
b10011100100101 +
b101 2
b101 F
b10011101001011 8
b10011101001011 )
b10011101001011 @
05
b10011100100101 D
b10011100100101 B
1!
#520
0!
#530
b1 R
b101 S
b1101 I
b1101 Q
b101 T
1H
b101 G
b101 P
b1111111111111011 2
b1111111111111011 F
b1011 .
b1100 -
b10011101010101 *
b101 (
b10011101001011 >
1=
b10011101001011 :
b10011101001011 +
16
b10011101001011 D
b10011101001011 B
b10011101001011 <
b10011101001011 @
b10011101010101 8
b10011101010101 )
b1011 4
b100000010100000 %
b100000010100000 N
b11111111111110110000000 O
b1010000000 L
1!
#540
0!
#550
b0 >
0=
b0 <
b0 :
b1100000010100000 %
b1100000010100000 N
b1010000000 O
b11111111111110110000000 L
b1100 4
15
b0 +
1!
#560
0!
#570
06
1!
#580
0!
#590
x#
x"
x?
x;
bx >
x=
bx <
bx :
0H
b1100 .
b1101 -
bx *
b10011101010101 +
b101 2
b101 F
xA
x9
bx 8
bx )
bx @
05
b10011101010101 D
b10011101010101 B
1!
#600
0!
#610
bx R
bx S
b0xxxx I
b0xxxx Q
bx T
xH
bx G
bx P
bx 2
bx F
bx 0
b1101 .
b1110 -
x?
bx >
x;
bx :
bx +
16
xE
bx D
xC
bx B
x=
bx <
b1101 4
b100000010100000 %
b100000010100000 N
b11111111111110110000000 O
b1010000000 L
1!
#620
0!
#630
b1110 .
b1111 -
1&
bx0100000 %
bx0100000 N
bx J
bx0000000 O
bx0000000 L
b1110 4
06
1!
