dumpfile.vcd
$date
	Mon Dec  3 17:08:07 2018
$end
$version
	Icarus Verilog
$end
$timescale
	1s
$end
$scope module testbench $end
$scope module PE $end
$var wire 1 ! clock $end
$var wire 1 " halt $end
$var wire 1 # reset $end
$var wire 1 $ waitFlag $end
$var wire 16 % result [15:0] $end
$var wire 1 & registerWrite $end
$var wire 16 ' regToWrite [15:0] $end
$var wire 16 ( pcCHANGE [15:0] $end
$var wire 16 ) pc [15:0] $end
$var wire 16 * op2Data1 [15:0] $end
$var wire 16 + op2 [15:0] $end
$var wire 16 , instOut2 [15:0] $end
$var wire 16 - instOut1 [15:0] $end
$var wire 16 . instOut0 [15:0] $end
$var wire 16 / destData1 [15:0] $end
$var wire 16 0 dataToReg [15:0] $end
$scope module stage_one $end
$var wire 1 ! clk $end
$var wire 1 # reset $end
$var wire 1 & registerWrite $end
$var wire 16 1 regToWrite [15:0] $end
$var wire 16 2 instIn [15:0] $end
$var wire 16 3 dataToReg [15:0] $end
$var wire 16 4 PC [15:0] $end
$var reg 16 5 Rd [15:0] $end
$var reg 16 6 instOut [15:0] $end
$var reg 16 7 op2 [15:0] $end
$var reg 4 8 stage2Reg [3:0] $end
$var reg 4 9 stage3Reg [3:0] $end
$var reg 1 $ waitFlag $end
$upscope $end
$scope module stage_three $end
$var wire 1 ! clk $end
$var wire 1 # reset $end
$var wire 16 : result [15:0] $end
$var wire 16 ; op2 [15:0] $end
$var wire 16 < instIn [15:0] $end
$var reg 16 = PCchange [15:0] $end
$var reg 1 > Z $end
$var reg 16 ? cycles [15:0] $end
$var reg 16 @ dataToReg [15:0] $end
$var reg 1 A halt $end
$var reg 1 B haltFlag $end
$var reg 16 C regToWrite [15:0] $end
$var reg 1 & registerWrite $end
$upscope $end
$scope module stage_two $end
$var wire 16 D Rd [15:0] $end
$var wire 1 ! clk $end
$var wire 16 E instIn [15:0] $end
$var wire 16 F op2In [15:0] $end
$var wire 1 # reset $end
$var wire 16 G mulf_result [15:0] $end
$var wire 16 H itof_result [15:0] $end
$var wire 16 I ftoi_result [15:0] $end
$var reg 1 J halt $end
$var reg 16 K instOut [15:0] $end
$var reg 16 L op2Out [15:0] $end
$var reg 16 M operand2 [15:0] $end
$var reg 1 N posFlag $end
$var reg 12 O pre [11:0] $end
$var reg 16 P result [15:0] $end
$var reg 1 Q usePre $end
$var integer 32 R cycles [31:0] $end
$scope module ftoi_mod $end
$var wire 1 ! clk $end
$var wire 16 S in [15:0] $end
$var wire 1 T sign $end
$var reg 16 U exp_less_bias [15:0] $end
$var reg 8 V exponent [7:0] $end
$var reg 23 W left_shift [22:0] $end
$var reg 16 X man_pad [15:0] $end
$var reg 23 Y mantissa [22:0] $end
$var reg 16 Z out [15:0] $end
$var reg 16 [ out_temp [15:0] $end
$upscope $end
$scope module itof_mod $end
$var wire 1 ! clk $end
$var wire 16 \ in [15:0] $end
$var wire 16 ] zero_count_input [15:0] $end
$var wire 1 ^ sign $end
$var wire 5 _ d [4:0] $end
$var reg 8 ` exponent [7:0] $end
$var reg 7 a extra_zeros [6:0] $end
$var reg 23 b in_plus_zeros [22:0] $end
$var reg 7 c mantissa [6:0] $end
$var reg 16 d out [15:0] $end
$var reg 23 e twos_in_plus_zeros [22:0] $end
$scope module zero_counter $end
$var wire 16 f s [15:0] $end
$var reg 5 g d [4:0] $end
$var reg 2 h s2 [1:0] $end
$var reg 4 i s4 [3:0] $end
$var reg 8 j s8 [7:0] $end
$upscope $end
$upscope $end
$scope module mulf_mod $end
$var wire 16 k a [15:0] $end
$var wire 16 l b [15:0] $end
$var wire 1 ! clk $end
$var wire 1 m diff_sign $end
$var reg 16 n out [15:0] $end
$var reg 8 o out_exp [7:0] $end
$var reg 7 p out_man [6:0] $end
$var reg 8 q temp_exponent [7:0] $end
$var reg 16 r temp_mantissa [15:0] $end
$upscope $end
$upscope $end
$scope module stage_zero $end
$var wire 16 s PCchange [15:0] $end
$var wire 1 ! clk $end
$var wire 1 # reset $end
$var wire 1 $ waitFlag $end
$var reg 16 t cycles [15:0] $end
$var reg 1 u firstWait $end
$var reg 16 v instOut [15:0] $end
$var reg 16 w pc [15:0] $end
$var reg 16 x pcStageZero [15:0] $end
$upscope $end
$upscope $end
$upscope $end
$enddefinitions $end
#0
$dumpvars
b0 x
bx w
b10111000000000 v
0u
b0 t
b0 s
bx r
bx q
bx p
bx o
bx n
xm
bx l
bx k
bx j
bx i
bx h
bx g
bx f
bx e
bx d
bx c
bx b
b0 a
bx `
bx _
x^
bx ]
bx \
bx [
bx Z
bx Y
b1 X
bx W
bx V
bx U
xT
bx S
b10 R
0Q
bx P
bx O
0N
bx M
bx L
b10111000000000 K
0J
bx I
bx H
bx G
bx F
b10111000000000 E
bx D
bx C
0B
xA
bx @
b0 ?
x>
b0 =
b10111000000000 <
bx ;
bx :
bx 9
bx 8
bx 7
b10111000000000 6
bx 5
bx 4
bx 3
b10111000000000 2
bx 1
bx 0
bx /
b10111000000000 .
b10111000000000 -
b10111000000000 ,
bx +
bx *
bx )
b0 (
bx '
x&
bx %
0$
0#
x"
0!
$end
#10
0"
0A
1#
#20
0#
#30
b0 )
b0 4
b0 w
b1 x
b10000000000 .
b10000000000 2
b10000000000 v
0&
bx0000000 e
bx0000000 b
b1xxxxxxx Y
1!
#40
0!
#50
b0 /
b0 5
b0 D
b0 k
b0 *
b0 7
b0 F
b10000000000 -
b10000000000 6
b10000000000 E
b0 8
b1 )
b1 4
b1 w
b10 x
b1000100000000 .
b1000100000000 2
b1000100000000 v
1!
#60
0!
#70
b10 )
b10 4
b10 w
b11 x
b10000000100 .
b10000000100 2
b10000000100 v
1$
b10111000000000 -
b10111000000000 6
b10111000000000 E
b0 9
b10000000000 O
1Q
b10000000000 ,
b10000000000 <
b10000000000 K
1!
#80
0!
#90
b10111000000000 ,
b10111000000000 <
b10111000000000 K
0$
b11 )
b11 4
b11 w
b101 t
b1 x
b10111000000000 .
b10111000000000 2
b10111000000000 v
b10000 _
b10000 g
b0 ]
b0 f
0m
0T
0^
b0 M
b0 S
b0 \
b0 l
1!
#100
0!
#110
b1 )
b1 4
b1 w
b100 t
bx 8
b0 H
b0 d
b0 I
b0 Z
b0 [
b0 W
b1111111110000001 U
b10000000 Y
b0 V
b100000100100000 G
b100000100100000 n
b100000 p
b10000010 o
b100000000000000 r
b0 q
1!
#120
0!
#130
bx 9
b11 t
1!
#140
0!
#150
b10 t
1!
#160
0!
#170
b1 t
1!
#180
0!
#190
b0 t
1!
#200
0!
#210
b10 x
b1000100000000 .
b1000100000000 2
b1000100000000 v
1!
#220
0!
#230
b10 )
b10 4
b10 w
b11 x
b10000000100 .
b10000000100 2
b10000000100 v
b1000100000000 -
b1000100000000 6
b1000100000000 E
b0 8
1!
#240
0!
#250
b100000000000000 %
b100000000000000 :
b100000000000000 P
b0 O
0Q
b1000100000000 ,
b1000100000000 <
b1000100000000 K
1$
b10111000000000 -
b10111000000000 6
b10111000000000 E
b0 9
b11 )
b11 4
b11 w
b100 x
b10100100000000 .
b10100100000000 2
b10100100000000 v
b1 h
b100 i
b1000000 j
b1 _
b1 g
b100000000000000 ]
b100000000000000 f
b100000000000000 M
b100000000000000 S
b100000000000000 \
b100000000000000 l
1!
#260
0!
#270
b100 )
b100 4
b100 w
b101 t
b10 x
b10111000000000 .
b10111000000000 2
b10111000000000 v
0$
b10111000000000 ,
b10111000000000 <
b10111000000000 K
1&
b0 '
b0 1
b0 C
b100000000000000 0
b100000000000000 3
b100000000000000 @
b10000 _
b10000 g
b0 ]
b0 f
b0 M
b0 S
b0 \
b0 l
1!
#280
0!
#290
0&
bx 8
b10 )
b10 4
b10 w
b100 t
1!
#300
0!
#310
b11 t
bx 9
1!
#320
0!
#330
b10 t
1!
#340
0!
#350
b1 t
1!
#360
0!
#370
b0 t
1!
#380
0!
#390
b11 x
b10000000100 .
b10000000100 2
b10000000100 v
1!
#400
0!
#410
b100000000000000 /
b100000000000000 5
b100000000000000 D
b100000000000000 k
b10000000100 -
b10000000100 6
b10000000100 E
b0 8
b11 )
b11 4
b11 w
b100 x
b10100100000000 .
b10100100000000 2
b10100100000000 v
1!
#420
0!
#430
b100 )
b100 4
b100 w
b101 x
b10000000100 .
b10000000100 2
b10000000100 v
1$
b10111000000000 -
b10111000000000 6
b10111000000000 E
b0 9
b10000000100 O
1Q
b10000000100 ,
b10000000100 <
b10000000100 K
b100100000 G
b100100000 n
b10 o
b10000000 q
1!
#440
0!
#450
b10111000000000 ,
b10111000000000 <
b10111000000000 K
0$
b101 )
b101 4
b101 w
b101 t
b11 x
b10111000000000 .
b10111000000000 2
b10111000000000 v
1!
#460
0!
#470
b11 )
b11 4
b11 w
b100 t
bx 8
1!
#480
0!
#490
bx 9
b11 t
1!
#500
0!
#510
b10 t
1!
#520
0!
#530
b1 t
1!
#540
0!
#550
b0 t
1!
#560
0!
#570
b100 x
b10100100000000 .
b10100100000000 2
b10100100000000 v
1!
#580
0!
#590
b100 )
b100 4
b100 w
b101 x
b10000000100 .
b10000000100 2
b10000000100 v
b10100100000000 -
b10100100000000 6
b10100100000000 E
b0 8
1!
#600
0!
#610
b0 O
0Q
b10100100000000 ,
b10100100000000 <
b10100100000000 K
1$
b10111000000000 -
b10111000000000 6
b10111000000000 E
b0 9
b101 )
b101 4
b101 w
b110 x
b10100100000000 .
b10100100000000 2
b10100100000000 v
b1 _
b1 g
b100000001000000 ]
b100000001000000 f
b100000001000000 M
b100000001000000 S
b100000001000000 \
b100000001000000 l
1!
#620
0!
#630
b110 )
b110 4
b110 w
b101 t
b100 x
b10111000000000 .
b10111000000000 2
b10111000000000 v
0$
b10111000000000 ,
b10111000000000 <
b10111000000000 K
1&
b10000 _
b10000 g
b0 ]
b0 f
b0 M
b0 S
b0 \
b0 l
1!
#640
0!
#650
0&
bx 8
b100 )
b100 4
b100 w
b100 t
1!
#660
0!
#670
b11 t
bx 9
1!
#680
0!
#690
b10 t
1!
#700
0!
#710
b1 t
1!
#720
0!
#730
b0 t
1!
#740
0!
#750
b101 x
b10000000100 .
b10000000100 2
b10000000100 v
1!
#760
0!
#770
b10000000100 -
b10000000100 6
b10000000100 E
b0 8
b101 )
b101 4
b101 w
b110 x
b10100100000000 .
b10100100000000 2
b10100100000000 v
1!
#780
0!
#790
b110 )
b110 4
b110 w
b111 x
b10000000100 .
b10000000100 2
b10000000100 v
1$
b10111000000000 -
b10111000000000 6
b10111000000000 E
b0 9
b10000000100 O
1Q
b10000000100 ,
b10000000100 <
b10000000100 K
1!
#800
0!
#810
b10111000000000 ,
b10111000000000 <
b10111000000000 K
0$
b111 )
b111 4
b111 w
b101 t
b101 x
b10111000000000 .
b10111000000000 2
b10111000000000 v
1!
#820
0!
#830
b101 )
b101 4
b101 w
b100 t
bx 8
1!
#840
0!
#850
bx 9
b11 t
1!
#860
0!
#870
b10 t
1!
#880
0!
#890
b1 t
1!
#900
0!
#910
b0 t
1!
#920
0!
#930
b110 x
b10100100000000 .
b10100100000000 2
b10100100000000 v
1!
#940
0!
#950
b110 )
b110 4
b110 w
b111 x
b10000000100 .
b10000000100 2
b10000000100 v
b10100100000000 -
b10100100000000 6
b10100100000000 E
b0 8
1!
#960
0!
#970
b0 O
0Q
b10100100000000 ,
b10100100000000 <
b10100100000000 K
1$
b10111000000000 -
b10111000000000 6
b10111000000000 E
b0 9
b111 )
b111 4
b111 w
b1000 x
b10100100000000 .
b10100100000000 2
b10100100000000 v
b1 _
b1 g
b100000001000000 ]
b100000001000000 f
b100000001000000 M
b100000001000000 S
b100000001000000 \
b100000001000000 l
1!
#980
0!
#990
b1000 )
b1000 4
b1000 w
b101 t
b110 x
b10111000000000 .
b10111000000000 2
b10111000000000 v
0$
b10111000000000 ,
b10111000000000 <
b10111000000000 K
1&
b10000 _
b10000 g
b0 ]
b0 f
b0 M
b0 S
b0 \
b0 l
1!
#1000
0!
#1010
0&
bx 8
b110 )
b110 4
b110 w
b100 t
1!
#1020
0!
#1030
b11 t
bx 9
1!
#1040
0!
#1050
b10 t
1!
#1060
0!
#1070
b1 t
1!
#1080
0!
#1090
b0 t
1!
#1100
0!
#1110
b111 x
b10000000100 .
b10000000100 2
b10000000100 v
1!
#1120
0!
#1130
b10000000100 -
b10000000100 6
b10000000100 E
b0 8
b111 )
b111 4
b111 w
b1000 x
b10100100000000 .
b10100100000000 2
b10100100000000 v
1!
#1140
0!
#1150
b1000 )
b1000 4
b1000 w
b1001 x
bx .
bx 2
bx v
1$
b10111000000000 -
b10111000000000 6
b10111000000000 E
b0 9
b10000000100 O
1Q
b10000000100 ,
b10000000100 <
b10000000100 K
1!
#1160
0!
#1170
b10111000000000 ,
b10111000000000 <
b10111000000000 K
0$
bx 8
b1001 )
b1001 4
b1001 w
b101 t
b111 x
b10111000000000 .
b10111000000000 2
b10111000000000 v
1!
#1180
0!
#1190
b111 )
b111 4
b111 w
b100 t
bx 9
1!
#1200
0!
#1210
b11 t
1!
#1220
0!
#1230
b10 t
1!
#1240
0!
#1250
b1 t
1!
#1260
0!
#1270
b0 t
1!
#1280
0!
#1290
b1000 x
b10100100000000 .
b10100100000000 2
b10100100000000 v
1!
#1300
0!
#1310
b1000 )
b1000 4
b1000 w
b1001 x
bx .
bx 2
bx v
b10100100000000 -
b10100100000000 6
b10100100000000 E
b0 8
1!
#1320
0!
#1330
b0 O
0Q
b10100100000000 ,
b10100100000000 <
b10100100000000 K
bx -
bx 6
bx E
bx 8
b0 9
b1001 )
b1001 4
b1001 w
b1010 x
b1 _
b1 g
b100000001000000 ]
b100000001000000 f
b100000001000000 M
b100000001000000 S
b100000001000000 \
b100000001000000 l
1!
#1340
0!
#1350
b1010 )
b1010 4
b1010 w
b1011 x
bx 9
bx ,
bx <
bx K
1&
b10000 _
b10000 g
b0 ]
b0 f
b0 M
b0 S
b0 \
b0 l
1!
#1360
0!
#1370
x"
1A
0&
b1011 )
b1011 4
b1011 w
b1100 x
1!
