dumpfile.vcd
$date
	Wed Nov 14 14:43:04 2018
$end
$version
	Icarus Verilog
$end
$timescale
	1s
$end
$scope module testbench $end
$scope module PE $end
$var wire 1 ! clock $end
$var wire 1 " halt $end
$var wire 1 # reset $end
$var wire 1 $ waitFlag $end
$var wire 16 % result [15:0] $end
$var wire 1 & registerWrite $end
$var wire 16 ' regToWrite [15:0] $end
$var wire 16 ( pcCHANGE [15:0] $end
$var wire 16 ) pc [15:0] $end
$var wire 16 * op2Data1 [15:0] $end
$var wire 16 + op2 [15:0] $end
$var wire 16 , instOut2 [15:0] $end
$var wire 16 - instOut1 [15:0] $end
$var wire 16 . instOut0 [15:0] $end
$var wire 16 / destData1 [15:0] $end
$var wire 16 0 dataToReg [15:0] $end
$scope module stage_one $end
$var wire 1 ! clk $end
$var wire 1 # reset $end
$var wire 1 & registerWrite $end
$var wire 16 1 regToWrite [15:0] $end
$var wire 16 2 instIn [15:0] $end
$var wire 16 3 dataToReg [15:0] $end
$var wire 16 4 PC [15:0] $end
$var reg 16 5 Rd [15:0] $end
$var reg 16 6 instOut [15:0] $end
$var reg 16 7 op2 [15:0] $end
$var reg 4 8 stage2Reg [3:0] $end
$var reg 4 9 stage3Reg [3:0] $end
$var reg 1 $ waitFlag $end
$upscope $end
$scope module stage_three $end
$var wire 1 ! clk $end
$var wire 1 # reset $end
$var wire 16 : result [15:0] $end
$var wire 16 ; op2 [15:0] $end
$var wire 16 < instIn [15:0] $end
$var reg 16 = PCchange [15:0] $end
$var reg 1 > Z $end
$var reg 16 ? cycles [15:0] $end
$var reg 16 @ dataToReg [15:0] $end
$var reg 1 A halt $end
$var reg 1 B haltFlag $end
$var reg 16 C regToWrite [15:0] $end
$var reg 1 & registerWrite $end
$upscope $end
$scope module stage_two $end
$var wire 16 D Rd [15:0] $end
$var wire 1 ! clk $end
$var wire 16 E instIn [15:0] $end
$var wire 16 F op2In [15:0] $end
$var wire 1 # reset $end
$var reg 1 G halt $end
$var reg 16 H instOut [15:0] $end
$var reg 16 I op2Out [15:0] $end
$var reg 16 J operand2 [15:0] $end
$var reg 1 K posFlag $end
$var reg 12 L pre [11:0] $end
$var reg 16 M result [15:0] $end
$var reg 1 N usePre $end
$var integer 32 O cycles [31:0] $end
$upscope $end
$scope module stage_zero $end
$var wire 16 P PCchange [15:0] $end
$var wire 1 ! clk $end
$var wire 1 # reset $end
$var wire 1 $ waitFlag $end
$var reg 16 Q cycles [15:0] $end
$var reg 1 R firstWait $end
$var reg 16 S instOut [15:0] $end
$var reg 16 T pc [15:0] $end
$var reg 16 U pcStageZero [15:0] $end
$upscope $end
$upscope $end
$upscope $end
$enddefinitions $end
#0
$dumpvars
b0 U
bx T
b10111000000000 S
0R
b0 Q
b0 P
b10 O
0N
bx M
bx L
0K
bx J
bx I
b10111000000000 H
0G
bx F
b10111000000000 E
bx D
bx C
0B
xA
bx @
b0 ?
x>
b0 =
b10111000000000 <
bx ;
bx :
bx 9
bx 8
bx 7
b10111000000000 6
bx 5
bx 4
bx 3
b10111000000000 2
bx 1
bx 0
bx /
b10111000000000 .
b10111000000000 -
b10111000000000 ,
bx +
bx *
bx )
b0 (
bx '
x&
bx %
0$
0#
x"
0!
$end
#10
0"
0A
1#
#20
0#
#30
b0 )
b0 4
b0 T
b1 U
b111111111001 .
b111111111001 2
b111111111001 S
0&
1!
#40
0!
#50
b1001 *
b1001 7
b1001 F
b111111111001 -
b111111111001 6
b111111111001 E
b1111 8
b1 )
b1 4
b1 T
b10 U
b1000100001100 .
b1000100001100 2
b1000100001100 S
1!
#60
0!
#70
b10 )
b10 4
b10 T
b11 U
b1000100011011 .
b1000100011011 2
b1000100011011 S
b0 /
b0 5
b0 D
b1100 *
b1100 7
b1100 F
b1000100001100 -
b1000100001100 6
b1000100001100 E
b0 8
b1111 9
b111111111001 L
1N
b111111111001 ,
b111111111001 <
b111111111001 H
1!
#80
0!
#90
b1111111110011100 %
b1111111110011100 :
b1111111110011100 M
b0 L
0N
b1000100001100 ,
b1000100001100 <
b1000100001100 H
b1011 *
b1011 7
b1011 F
b1000100011011 -
b1000100011011 6
b1000100011011 E
b1 8
b0 9
b11 )
b11 4
b11 T
b100 U
b1000100100101 .
b1000100100101 2
b1000100100101 S
b1111111110011100 J
1!
#100
0!
#110
b100 )
b100 4
b100 T
b101 U
b110 .
b110 2
b110 S
b101 *
b101 7
b101 F
b1000100100101 -
b1000100100101 6
b1000100100101 E
b10 8
b1 9
b1111111111111011 %
b1111111111111011 :
b1111111111111011 M
b1000100011011 ,
b1000100011011 <
b1000100011011 H
1&
b0 '
b0 1
b0 C
b1111111110011100 0
b1111111110011100 3
b1111111110011100 @
b1111111111111011 J
1!
#120
0!
#130
b1 '
b1 1
b1 C
b1111111111111011 0
b1111111111111011 3
b1111111111111011 @
1&
b101 %
b101 :
b101 M
b1000100100101 ,
b1000100100101 <
b1000100100101 H
b110 -
b110 6
b110 E
bx 8
b10 9
b101 )
b101 4
b101 T
b110 U
b1000100110100 .
b1000100110100 2
b1000100110100 S
b101 J
1!
#140
0!
#150
b110 )
b110 4
b110 T
b111 U
b1011111111111111 .
b1011111111111111 2
b1011111111111111 S
b100 *
b100 7
b100 F
b1000100110100 -
b1000100110100 6
b1000100110100 E
b11 8
bx 9
b110 L
1N
b110 ,
b110 <
b110 H
b10 '
b10 1
b10 C
b101 0
b101 3
b101 @
1&
1!
#160
0!
#170
0&
b1100100 %
b1100100 :
b1100100 M
b0 L
0N
b1000100110100 ,
b1000100110100 <
b1000100110100 H
b1011111111111111 -
b1011111111111111 6
b1011111111111111 E
bx 8
b11 9
b111 )
b111 4
b111 T
b1000 U
b1100100 J
1!
#180
0!
#190
b1000 )
b1000 4
b1000 T
b1001 U
bx 9
b1011111111111111 ,
b1011111111111111 <
b1011111111111111 H
1&
b11 '
b11 1
b11 C
b1100100 0
b1100100 3
b1100100 @
b100 J
1!
#200
0!
#210
0&
b1001 )
b1001 4
b1001 T
b1010 U
b1000001000000 .
b1000001000000 2
b1000001000000 S
1!
#220
0!
#230
b1010 )
b1010 4
b1010 T
b1011 U
b1111111110011100 *
b1111111110011100 7
b1111111110011100 F
b1000001000000 -
b1000001000000 6
b1000001000000 E
b100 8
1!
#240
0!
#250
b1111111110011100 %
b1111111110011100 :
b1111111110011100 M
b1000001000000 ,
b1000001000000 <
b1000001000000 H
1$
b10111000000000 -
b10111000000000 6
b10111000000000 E
b100 9
b1011 )
b1011 4
b1011 T
b1100 U
b111111110011 .
b111111110011 2
b111111110011 S
b1111111110011100 J
1!
#260
0!
#270
b1100 )
b1100 4
b1100 T
b101 Q
b1010 U
b10111000000000 .
b10111000000000 2
b10111000000000 S
0$
b1111 8
b10111000000000 ,
b10111000000000 <
b10111000000000 H
1&
b100 '
b100 1
b100 C
b1111111110011100 0
b1111111110011100 3
b1111111110011100 @
1!
#280
0!
#290
0&
bx 8
b1111 9
b1010 )
b1010 4
b1010 T
b100 Q
1!
#300
0!
#310
b11 Q
bx 9
1!
#320
0!
#330
b10 Q
1!
#340
0!
#350
b1 Q
1!
#360
0!
#370
b0 Q
1!
#380
0!
#390
b1011 U
b1000001000000 .
b1000001000000 2
b1000001000000 S
1!
#400
0!
#410
b1111111110011100 /
b1111111110011100 5
b1111111110011100 D
b1000001000000 -
b1000001000000 6
b1000001000000 E
b100 8
b1011 )
b1011 4
b1011 T
b1100 U
b111111110011 .
b111111110011 2
b111111110011 S
1!
#420
0!
#430
b1100 )
b1100 4
b1100 T
b1101 U
b110000101001000 .
b110000101001000 2
b110000101001000 S
b1010 /
b1010 5
b1010 D
b11 *
b11 7
b11 F
b111111110011 -
b111111110011 6
b111111110011 E
b1111 8
b100 9
b1111111100111000 %
b1111111100111000 :
b1111111100111000 M
b1000001000000 ,
b1000001000000 <
b1000001000000 H
1!
#440
0!
#450
1&
b1111111100111000 0
b1111111100111000 3
b1111111100111000 @
b111111110011 L
1N
b111111110011 ,
b111111110011 <
b111111110011 H
b1111111110011100 /
b1111111110011100 5
b1111111110011100 D
b1000 *
b1000 7
b1000 F
1$
b10111000000000 -
b10111000000000 6
b10111000000000 E
b100 8
b1111 9
b1101 )
b1101 4
b1101 T
b1110 U
b1011111111111111 .
b1011111111111111 2
b1011111111111111 S
1!
#460
0!
#470
b1110 )
b1110 4
b1110 T
b101 Q
b1100 U
b10111000000000 .
b10111000000000 2
b10111000000000 S
0$
bx 8
b100 9
b10111000000000 ,
b10111000000000 <
b10111000000000 H
0&
b1000 J
1!
#480
0!
#490
bx 9
b1100 )
b1100 4
b1100 T
b100 Q
1!
#500
0!
#510
b11 Q
1!
#520
0!
#530
b10 Q
1!
#540
0!
#550
b1 Q
1!
#560
0!
#570
b0 Q
1!
#580
0!
#590
b1101 U
b110000101001000 .
b110000101001000 2
b110000101001000 S
1!
#600
0!
#610
b1111111100111000 /
b1111111100111000 5
b1111111100111000 D
b110000101001000 -
b110000101001000 6
b110000101001000 E
b100 8
b1101 )
b1101 4
b1101 T
b1110 U
b1011111111111111 .
b1011111111111111 2
b1011111111111111 S
1!
#620
0!
#630
b1110 )
b1110 4
b1110 T
b1111 U
b1000111010011 .
b1000111010011 2
b1000111010011 S
b1011111111111111 -
b1011111111111111 6
b1011111111111111 E
bx 8
b100 9
b0 %
b0 :
b0 M
b0 L
0N
b110000101001000 ,
b110000101001000 <
b110000101001000 H
b1111111100111000 J
1!
#640
0!
#650
1&
b0 0
b0 3
b0 @
1>
b1011111111111111 ,
b1011111111111111 <
b1011111111111111 H
b0 /
b0 5
b0 D
b11 *
b11 7
b11 F
b1000111010011 -
b1000111010011 6
b1000111010011 E
b1101 8
bx 9
b1111 )
b1111 4
b1111 T
b10000 U
b1000001000000 .
b1000001000000 2
b1000001000000 S
b1111111111111000 J
1!
#660
0!
#670
b10000 )
b10000 4
b10000 T
b10001 U
b1000001000001 .
b1000001000001 2
b1000001000001 S
b1111111100111000 /
b1111111100111000 5
b1111111100111000 D
b1111111110011100 *
b1111111110011100 7
b1111111110011100 F
b1000001000000 -
b1000001000000 6
b1000001000000 E
b100 8
b1101 9
b11 %
b11 :
b11 M
b1000111010011 ,
b1000111010011 <
b1000111010011 H
0&
b11 J
1!
#680
0!
#690
1&
b1101 '
b1101 1
b1101 C
b11 0
b11 3
b11 @
b1111111011010100 %
b1111111011010100 :
b1111111011010100 M
b1000001000000 ,
b1000001000000 <
b1000001000000 H
b0 /
b0 5
b0 D
b1111111111111011 *
b1111111111111011 7
b1111111111111011 F
1$
b10111000000000 -
b10111000000000 6
b10111000000000 E
b100 9
b10001 )
b10001 4
b10001 T
b10010 U
b111111111001 .
b111111111001 2
b111111111001 S
b1111111110011100 J
1!
#700
0!
#710
b10010 )
b10010 4
b10010 T
b101 Q
b10000 U
b10111000000000 .
b10111000000000 2
b10111000000000 S
0$
b1111 8
b10111000000000 ,
b10111000000000 <
b10111000000000 H
b100 '
b100 1
b100 C
b1111111011010100 0
b1111111011010100 3
b1111111011010100 @
1&
b1111111111111011 J
1!
#720
0!
#730
0&
bx 8
b1111 9
b10000 )
b10000 4
b10000 T
b100 Q
1!
#740
0!
#750
b11 Q
bx 9
1!
#760
0!
#770
b10 Q
1!
#780
0!
#790
b1 Q
1!
#800
0!
#810
b0 Q
1!
#820
0!
#830
b10001 U
b1000001000001 .
b1000001000001 2
b1000001000001 S
1!
#840
0!
#850
b1111111011010100 /
b1111111011010100 5
b1111111011010100 D
b1000001000001 -
b1000001000001 6
b1000001000001 E
b100 8
b10001 )
b10001 4
b10001 T
b10010 U
b111111111001 .
b111111111001 2
b111111111001 S
1!
#860
0!
#870
b10010 )
b10010 4
b10010 T
b10011 U
b110000101000111 .
b110000101000111 2
b110000101000111 S
b10000 /
b10000 5
b10000 D
b1001 *
b1001 7
b1001 F
b111111111001 -
b111111111001 6
b111111111001 E
b1111 8
b100 9
b1111111011001111 %
b1111111011001111 :
b1111111011001111 M
b1000001000001 ,
b1000001000001 <
b1000001000001 H
1!
#880
0!
#890
1&
b1111111011001111 0
b1111111011001111 3
b1111111011001111 @
b111111111001 L
1N
b111111111001 ,
b111111111001 <
b111111111001 H
b1111111011010100 /
b1111111011010100 5
b1111111011010100 D
b111 *
b111 7
b111 F
1$
b10111000000000 -
b10111000000000 6
b10111000000000 E
b100 8
b1111 9
b10011 )
b10011 4
b10011 T
b10100 U
b1011111111111111 .
b1011111111111111 2
b1011111111111111 S
1!
#900
0!
#910
b10100 )
b10100 4
b10100 T
b101 Q
b10010 U
b10111000000000 .
b10111000000000 2
b10111000000000 S
0$
bx 8
b100 9
b10111000000000 ,
b10111000000000 <
b10111000000000 H
0&
b111 J
1!
#920
0!
#930
bx 9
b10010 )
b10010 4
b10010 T
b100 Q
1!
#940
0!
#950
b11 Q
1!
#960
0!
#970
b10 Q
1!
#980
0!
#990
b1 Q
1!
#1000
0!
#1010
b0 Q
1!
#1020
0!
#1030
b10011 U
b110000101000111 .
b110000101000111 2
b110000101000111 S
1!
#1040
0!
#1050
b1111111011001111 /
b1111111011001111 5
b1111111011001111 D
b110000101000111 -
b110000101000111 6
b110000101000111 E
b100 8
b10011 )
b10011 4
b10011 T
b10100 U
b1011111111111111 .
b1011111111111111 2
b1011111111111111 S
1!
#1060
0!
#1070
b10100 )
b10100 4
b10100 T
b10101 U
b1000001000000 .
b1000001000000 2
b1000001000000 S
b1011111111111111 -
b1011111111111111 6
b1011111111111111 E
bx 8
b100 9
b1111111100111000 %
b1111111100111000 :
b1111111100111000 M
b0 L
0N
b110000101000111 ,
b110000101000111 <
b110000101000111 H
b1111111110010111 J
1!
#1080
0!
#1090
1&
b1111111100111000 0
b1111111100111000 3
b1111111100111000 @
0>
b1011111111111111 ,
b1011111111111111 <
b1011111111111111 H
b1111111110011100 *
b1111111110011100 7
b1111111110011100 F
1$
b10111000000000 -
b10111000000000 6
b10111000000000 E
b100 8
bx 9
b10101 )
b10101 4
b10101 T
b10110 U
b1000001000010 .
b1000001000010 2
b1000001000010 S
b111 J
1!
#1100
0!
#1110
b10110 )
b10110 4
b10110 T
b101 Q
b10100 U
b10111000000000 .
b10111000000000 2
b10111000000000 S
0$
b100 9
b10111000000000 ,
b10111000000000 <
b10111000000000 H
b1111111100111000 (
b1111111100111000 =
b1111111100111000 P
b10 ?
1B
0&
b1111111110011100 J
1!
#1120
0!
#1130
b0 (
b0 =
b0 P
bx 8
b10100 )
b10100 4
b10100 T
b1111111100111000 U
1!
#1140
0!
#1150
b1111111100111000 )
b1111111100111000 4
b1111111100111000 T
b100 Q
bx 9
1!
#1160
0!
#1170
b11 Q
1!
#1180
0!
#1190
b10 Q
1!
#1200
0!
#1210
b1 Q
1!
#1220
0!
#1230
b0 Q
1!
#1240
0!
#1250
b1111111100111001 U
bx .
bx 2
bx S
1!
#1260
0!
#1270
b1111111100111001 )
b1111111100111001 4
b1111111100111001 T
b1111111100111010 U
bx -
bx 6
bx E
1!
#1280
0!
#1290
bx ,
bx <
bx H
b1111111100111010 )
b1111111100111010 4
b1111111100111010 T
b1111111100111011 U
1!
#1300
0!
#1310
b1111111100111011 )
b1111111100111011 4
b1111111100111011 T
b1111111100111100 U
b1 ?
1!
#1320
0!
#1330
b0 ?
b1111111100111100 )
b1111111100111100 4
b1111111100111100 T
b1111111100111101 U
1!
#1340
0!
#1350
b1111111100111101 )
b1111111100111101 4
b1111111100111101 T
b1111111100111110 U
x"
1A
1!
