dumpfile.vcd
$date
	Sat Dec  1 12:02:00 2018
$end
$version
	Icarus Verilog
$end
$timescale
	1s
$end
$scope module testbench $end
$scope module PE $end
$var wire 1 ! clock $end
$var wire 1 " halt $end
$var wire 1 # reset $end
$var wire 1 $ waitFlag $end
$var wire 16 % result [15:0] $end
$var wire 1 & registerWrite $end
$var wire 16 ' regToWrite [15:0] $end
$var wire 16 ( pcCHANGE [15:0] $end
$var wire 16 ) pc [15:0] $end
$var wire 16 * op2Data1 [15:0] $end
$var wire 16 + op2 [15:0] $end
$var wire 16 , instOut2 [15:0] $end
$var wire 16 - instOut1 [15:0] $end
$var wire 16 . instOut0 [15:0] $end
$var wire 16 / destData1 [15:0] $end
$var wire 16 0 dataToReg [15:0] $end
$scope module stage_one $end
$var wire 1 ! clk $end
$var wire 1 # reset $end
$var wire 1 & registerWrite $end
$var wire 16 1 regToWrite [15:0] $end
$var wire 16 2 instIn [15:0] $end
$var wire 16 3 dataToReg [15:0] $end
$var wire 16 4 PC [15:0] $end
$var reg 16 5 Rd [15:0] $end
$var reg 16 6 instOut [15:0] $end
$var reg 16 7 op2 [15:0] $end
$var reg 4 8 stage2Reg [3:0] $end
$var reg 4 9 stage3Reg [3:0] $end
$var reg 1 $ waitFlag $end
$upscope $end
$scope module stage_three $end
$var wire 1 ! clk $end
$var wire 1 # reset $end
$var wire 16 : result [15:0] $end
$var wire 16 ; op2 [15:0] $end
$var wire 16 < instIn [15:0] $end
$var reg 16 = PCchange [15:0] $end
$var reg 1 > Z $end
$var reg 16 ? cycles [15:0] $end
$var reg 16 @ dataToReg [15:0] $end
$var reg 1 A halt $end
$var reg 1 B haltFlag $end
$var reg 16 C regToWrite [15:0] $end
$var reg 1 & registerWrite $end
$upscope $end
$scope module stage_two $end
$var wire 16 D Rd [15:0] $end
$var wire 1 ! clk $end
$var wire 16 E instIn [15:0] $end
$var wire 16 F op2In [15:0] $end
$var wire 1 # reset $end
$var wire 16 G itof_result [15:0] $end
$var reg 1 H halt $end
$var reg 16 I instOut [15:0] $end
$var reg 16 J op2Out [15:0] $end
$var reg 16 K operand2 [15:0] $end
$var reg 1 L posFlag $end
$var reg 12 M pre [11:0] $end
$var reg 16 N result [15:0] $end
$var reg 1 O usePre $end
$var integer 32 P cycles [31:0] $end
$scope module itof_mod $end
$var wire 1 ! clk $end
$var wire 16 Q in [15:0] $end
$var wire 5 R d [4:0] $end
$var reg 8 S exponent [7:0] $end
$var reg 7 T extra_zeros [6:0] $end
$var reg 23 U in_plus_zeros [22:0] $end
$var reg 7 V mantissa [6:0] $end
$var reg 16 W out [15:0] $end
$var reg 1 X sign $end
$var reg 23 Y twos_in_plus_zeros [22:0] $end
$scope module zero_counter $end
$var wire 16 Z s [15:0] $end
$var reg 5 [ d [4:0] $end
$var reg 2 \ s2 [1:0] $end
$var reg 4 ] s4 [3:0] $end
$var reg 8 ^ s8 [7:0] $end
$upscope $end
$upscope $end
$upscope $end
$scope module stage_zero $end
$var wire 16 _ PCchange [15:0] $end
$var wire 1 ! clk $end
$var wire 1 # reset $end
$var wire 1 $ waitFlag $end
$var reg 16 ` cycles [15:0] $end
$var reg 1 a firstWait $end
$var reg 16 b instOut [15:0] $end
$var reg 16 c pc [15:0] $end
$var reg 16 d pcStageZero [15:0] $end
$upscope $end
$upscope $end
$upscope $end
$enddefinitions $end
#0
$dumpvars
b0 d
bx c
b10111000000000 b
0a
b0 `
b0 _
bx ^
bx ]
bx \
bx [
bx Z
bx Y
xX
bx W
bx V
bx U
b0 T
bx S
bx R
bx Q
b10 P
0O
bx N
bx M
0L
bx K
bx J
b10111000000000 I
0H
bx G
bx F
b10111000000000 E
bx D
bx C
0B
xA
bx @
b0 ?
x>
b0 =
b10111000000000 <
bx ;
bx :
bx 9
bx 8
bx 7
b10111000000000 6
bx 5
bx 4
bx 3
b10111000000000 2
bx 1
bx 0
bx /
b10111000000000 .
b10111000000000 -
b10111000000000 ,
bx +
bx *
bx )
b0 (
bx '
x&
bx %
0$
0#
x"
0!
$end
#10
0"
0A
1#
#20
0#
#30
b0 )
b0 4
b0 c
b1 d
b10011100000110 .
b10011100000110 2
b10011100000110 b
0&
bx0000000 Y
bx0000000 U
1!
#40
0!
#50
b0 /
b0 5
b0 D
b110 *
b110 7
b110 F
b10011100000110 -
b10011100000110 6
b10011100000110 E
b0 8
b1 )
b1 4
b1 c
b10 d
b10011100010000 .
b10011100010000 2
b10011100010000 b
1!
#60
0!
#70
b10 )
b10 4
b10 c
b11 d
b11111111111 .
b11111111111 2
b11111111111 b
b0 *
b0 7
b0 F
1$
b10111000000000 -
b10111000000000 6
b10111000000000 E
b1 8
b0 9
b10011100000110 ,
b10011100000110 <
b10011100000110 I
b1 \
b110 ]
b110 ^
b1101 R
b1101 [
b0xxxxxxxxxxxxxxx G
b0xxxxxxxxxxxxxxx W
b11111111111110100000000 Y
b1100000000 U
0X
b110 K
b110 Q
b110 Z
1!
#80
0!
#90
1&
b0 '
b0 1
b0 C
b10111000000000 ,
b10111000000000 <
b10111000000000 I
0$
b1111 8
b1 9
b11 )
b11 4
b11 c
b101 `
b1 d
b10111000000000 .
b10111000000000 2
b10111000000000 b
b10000 R
b10000 [
b0 K
b0 Q
b0 Z
b100000011000000 G
b100000011000000 W
b10000001 S
b1000000 V
1!
#100
0!
#110
b1 )
b1 4
b1 c
b100 `
bx 8
b1111 9
0&
b0 G
b0 W
1!
#120
0!
#130
bx 9
b11 `
1!
#140
0!
#150
b10 `
1!
#160
0!
#170
b1 `
1!
#180
0!
#190
b0 `
1!
#200
0!
#210
b10 d
b10011100010000 .
b10011100010000 2
b10011100010000 b
1!
#220
0!
#230
b10 )
b10 4
b10 c
b11 d
b11111111111 .
b11111111111 2
b11111111111 b
b10011100010000 -
b10011100010000 6
b10011100010000 E
b1 8
1!
#240
0!
#250
b0 %
b0 :
b0 N
b10011100010000 ,
b10011100010000 <
b10011100010000 I
b1 /
b1 5
b1 D
b1111 *
b1111 7
b1111 F
b11111111111 -
b11111111111 6
b11111111111 E
b1111 8
b1 9
b11 )
b11 4
b11 c
b100 d
b10011100101111 .
b10011100101111 2
b10011100101111 b
1!
#260
0!
#270
b100 )
b100 4
b100 c
b101 d
b100000000000 .
b100000000000 2
b100000000000 b
b0 /
b0 5
b0 D
1$
b10111000000000 -
b10111000000000 6
b10111000000000 E
b10 8
b1111 9
b11111111111 M
1O
b11111111111 ,
b11111111111 <
b11111111111 I
1&
b1 '
b1 1
b1 C
b0 0
b0 3
b0 @
1!
#280
0!
#290
0&
b10111000000000 ,
b10111000000000 <
b10111000000000 I
0$
b0 8
b10 9
b101 )
b101 4
b101 c
b101 `
b11 d
b10111000000000 .
b10111000000000 2
b10111000000000 b
b11 \
b1111 ]
b1111 ^
b1100 R
b1100 [
b1111 K
b1111 Q
b1111 Z
1!
#300
0!
#310
b11 )
b11 4
b11 c
b100 `
bx 8
b0 9
b100000101110000 G
b100000101110000 W
b10000010 S
b1110000 V
b11111111111100010000000 Y
b11110000000 U
1!
#320
0!
#330
bx 9
b11 `
1!
#340
0!
#350
b10 `
1!
#360
0!
#370
b1 `
1!
#380
0!
#390
b0 `
1!
#400
0!
#410
b100 d
b10011100101111 .
b10011100101111 2
b10011100101111 b
1!
#420
0!
#430
b100 )
b100 4
b100 c
b101 d
b100000000000 .
b100000000000 2
b100000000000 b
b10011100101111 -
b10011100101111 6
b10011100101111 E
b10 8
1!
#440
0!
#450
b100000101110000 %
b100000101110000 :
b100000101110000 N
b0 M
0O
b10011100101111 ,
b10011100101111 <
b10011100101111 I
bx /
bx 5
bx D
bx *
bx 7
bx F
b100000000000 -
b100000000000 6
b100000000000 E
b0 8
b10 9
b101 )
b101 4
b101 c
b110 d
b10011100110000 .
b10011100110000 2
b10011100110000 b
b1 \
b111 ]
b1 R
b1 [
b1111111 ^
b111111111111111 K
b111111111111111 Q
b111111111111111 Z
1!
#460
0!
#470
b110 )
b110 4
b110 c
b111 d
b10011101001000 .
b10011101001000 2
b10011101001000 b
b0 /
b0 5
b0 D
b0 *
b0 7
b0 F
1$
b10111000000000 -
b10111000000000 6
b10111000000000 E
b11 8
b0 9
b100000000000 M
1O
b100000000000 ,
b100000000000 <
b100000000000 I
1&
b10 '
b10 1
b10 C
b100000101110000 0
b100000101110000 3
b100000101110000 @
b100011011111111 G
b100011011111111 W
b10001101 S
b1111111 V
b10000000000000010000000 Y
b1111111111111110000000 U
1!
#480
0!
#490
0&
b10111000000000 ,
b10111000000000 <
b10111000000000 I
0$
b100 8
b11 9
b111 )
b111 4
b111 c
b101 `
b101 d
b10111000000000 .
b10111000000000 2
b10111000000000 b
b10000 R
b10000 [
b0 K
b0 Q
b0 Z
1!
#500
0!
#510
b101 )
b101 4
b101 c
b100 `
bx 8
b100 9
b0 G
b0 W
1!
#520
0!
#530
bx 9
b11 `
1!
#540
0!
#550
b10 `
1!
#560
0!
#570
b1 `
1!
#580
0!
#590
b0 `
1!
#600
0!
#610
b110 d
b10011100110000 .
b10011100110000 2
b10011100110000 b
1!
#620
0!
#630
b110 )
b110 4
b110 c
b111 d
b10011101001000 .
b10011101001000 2
b10011101001000 b
b10011100110000 -
b10011100110000 6
b10011100110000 E
b11 8
1!
#640
0!
#650
b0 %
b0 :
b0 N
b0 M
0O
b10011100110000 ,
b10011100110000 <
b10011100110000 I
b1000 *
b1000 7
b1000 F
b10011101001000 -
b10011101001000 6
b10011101001000 E
b100 8
b11 9
b111 )
b111 4
b111 c
b1000 d
b10011101010101 .
b10011101010101 2
b10011101010101 b
b10 \
b1000 ]
b10000000 ^
b0 R
b0 [
b1000000000000000 K
b1000000000000000 Q
b1000000000000000 Z
1!
#660
0!
#670
b1000 )
b1000 4
b1000 c
b1001 d
b10011100000110 .
b10011100000110 2
b10011100000110 b
b101 *
b101 7
b101 F
b10011101010101 -
b10011101010101 6
b10011101010101 E
b101 8
b100 9
b10011101001000 ,
b10011101001000 <
b10011101001000 I
1&
b11 '
b11 1
b11 C
b0 0
b0 3
b0 @
b11 \
b1111 ]
b11111111 ^
b1100011100000000 G
b1100011100000000 W
b10001110 S
b0 V
b10000000000 Y
b11111111111110000000000 U
1X
b1111111111111000 K
b1111111111111000 Q
b1111111111111000 Z
1!
#680
0!
#690
b100 '
b100 1
b100 C
1&
b1100011100000000 %
b1100011100000000 :
b1100011100000000 N
b10011101010101 ,
b10011101010101 <
b10011101010101 I
bx /
bx 5
bx D
b110 *
b110 7
b110 F
b10011100000110 -
b10011100000110 6
b10011100000110 E
b0 8
b101 9
b1001 )
b1001 4
b1001 c
b1010 d
b1000101100101 .
b1000101100101 2
b1000101100101 b
b1 \
b101 ]
b1101 R
b1101 [
b101 ^
b101 K
b101 Q
b101 Z
1!
#700
0!
#710
b1010 )
b1010 4
b1010 c
b1011 d
b1011111111111111 .
b1011111111111111 2
b1011111111111111 b
b0 /
b0 5
b0 D
b101 *
b101 7
b101 F
1$
b10111000000000 -
b10111000000000 6
b10111000000000 E
b110 8
b0 9
b10011100000110 ,
b10011100000110 <
b10011100000110 I
b101 '
b101 1
b101 C
b1100011100000000 0
b1100011100000000 3
b1100011100000000 @
1&
b110 ]
b110 ^
b100000011000000 G
b100000011000000 W
b10000001 S
b1000000 V
b11111111111110100000000 Y
b1100000000 U
0X
b110 K
b110 Q
b110 Z
1!
#720
0!
#730
b0 '
b0 1
b0 C
1&
b10111000000000 ,
b10111000000000 <
b10111000000000 I
0$
bx 8
b110 9
b1011 )
b1011 4
b1011 c
b101 `
b1001 d
b10111000000000 .
b10111000000000 2
b10111000000000 b
b101 ]
b101 ^
b101 K
b101 Q
b101 Z
1!
#740
0!
#750
b1001 )
b1001 4
b1001 c
b100 `
bx 9
0&
b100000010100000 G
b100000010100000 W
b100000 V
b11111111111110110000000 Y
b1010000000 U
1!
#760
0!
#770
b11 `
1!
#780
0!
#790
b10 `
1!
#800
0!
#810
b1 `
1!
#820
0!
#830
b0 `
1!
#840
0!
#850
b1010 d
b1000101100101 .
b1000101100101 2
b1000101100101 b
1!
#860
0!
#870
b1010 )
b1010 4
b1010 c
b1011 d
b1011111111111111 .
b1011111111111111 2
b1011111111111111 b
b1000101100101 -
b1000101100101 6
b1000101100101 E
b110 8
1!
#880
0!
#890
b101 %
b101 :
b101 N
b1000101100101 ,
b1000101100101 <
b1000101100101 I
b1011111111111111 -
b1011111111111111 6
b1011111111111111 E
bx 8
b110 9
b1011 )
b1011 4
b1011 c
b1100 d
1!
#900
0!
#910
b1100 )
b1100 4
b1100 c
b1101 d
bx 9
b1011111111111111 ,
b1011111111111111 <
b1011111111111111 I
1&
b110 '
b110 1
b110 C
b101 0
b101 3
b101 @
1!
#920
0!
#930
0&
b1101 )
b1101 4
b1101 c
b1110 d
bx .
bx 2
bx b
1!
#940
0!
#950
b1110 )
b1110 4
b1110 c
b1111 d
bx -
bx 6
bx E
1!
#960
0!
#970
bx ,
bx <
bx I
b1111 )
b1111 4
b1111 c
b10000 d
1!
#980
0!
#990
b10000 )
b10000 4
b10000 c
b10001 d
x"
1A
1!
