dumpfile.vcd
$date
	Sat Dec  1 15:52:01 2018
$end
$version
	Icarus Verilog
$end
$timescale
	1s
$end
$scope module testbench $end
$scope module PE $end
$var wire 1 ! clock $end
$var wire 1 " halt $end
$var wire 1 # reset $end
$var wire 1 $ waitFlag $end
$var wire 16 % result [15:0] $end
$var wire 1 & registerWrite $end
$var wire 16 ' regToWrite [15:0] $end
$var wire 16 ( pcCHANGE [15:0] $end
$var wire 16 ) pc [15:0] $end
$var wire 16 * op2Data1 [15:0] $end
$var wire 16 + op2 [15:0] $end
$var wire 16 , instOut2 [15:0] $end
$var wire 16 - instOut1 [15:0] $end
$var wire 16 . instOut0 [15:0] $end
$var wire 16 / destData1 [15:0] $end
$var wire 16 0 dataToReg [15:0] $end
$scope module stage_one $end
$var wire 1 ! clk $end
$var wire 1 # reset $end
$var wire 1 & registerWrite $end
$var wire 16 1 regToWrite [15:0] $end
$var wire 16 2 instIn [15:0] $end
$var wire 16 3 dataToReg [15:0] $end
$var wire 16 4 PC [15:0] $end
$var reg 16 5 Rd [15:0] $end
$var reg 16 6 instOut [15:0] $end
$var reg 16 7 op2 [15:0] $end
$var reg 4 8 stage2Reg [3:0] $end
$var reg 4 9 stage3Reg [3:0] $end
$var reg 1 $ waitFlag $end
$upscope $end
$scope module stage_three $end
$var wire 1 ! clk $end
$var wire 1 # reset $end
$var wire 16 : result [15:0] $end
$var wire 16 ; op2 [15:0] $end
$var wire 16 < instIn [15:0] $end
$var reg 16 = PCchange [15:0] $end
$var reg 1 > Z $end
$var reg 16 ? cycles [15:0] $end
$var reg 16 @ dataToReg [15:0] $end
$var reg 1 A halt $end
$var reg 1 B haltFlag $end
$var reg 16 C regToWrite [15:0] $end
$var reg 1 & registerWrite $end
$upscope $end
$scope module stage_two $end
$var wire 16 D Rd [15:0] $end
$var wire 1 ! clk $end
$var wire 16 E instIn [15:0] $end
$var wire 16 F op2In [15:0] $end
$var wire 1 # reset $end
$var wire 16 G itof_result [15:0] $end
$var wire 16 H ftoi_result [15:0] $end
$var reg 1 I halt $end
$var reg 16 J instOut [15:0] $end
$var reg 16 K op2Out [15:0] $end
$var reg 16 L operand2 [15:0] $end
$var reg 1 M posFlag $end
$var reg 12 N pre [11:0] $end
$var reg 16 O result [15:0] $end
$var reg 1 P usePre $end
$var integer 32 Q cycles [31:0] $end
$scope module ftoi_mod $end
$var wire 1 ! clk $end
$var wire 16 R in [15:0] $end
$var wire 16 S barrel_result [15:0] $end
$var reg 16 T exp_less_bias [15:0] $end
$var reg 8 U exponent [7:0] $end
$var reg 8 V extra_zeros [7:0] $end
$var reg 16 W mantissa [15:0] $end
$var reg 16 X out [15:0] $end
$scope module my_shifter $end
$var wire 16 Y shift [15:0] $end
$var wire 16 Z src [15:0] $end
$var reg 16 [ by1 [15:0] $end
$var reg 16 \ by2 [15:0] $end
$var reg 16 ] by4 [15:0] $end
$var reg 16 ^ by8 [15:0] $end
$var reg 16 _ dst [15:0] $end
$upscope $end
$upscope $end
$scope module itof_mod $end
$var wire 1 ! clk $end
$var wire 16 ` in [15:0] $end
$var wire 1 a sign $end
$var wire 5 b d [4:0] $end
$var reg 8 c exponent [7:0] $end
$var reg 7 d extra_zeros [6:0] $end
$var reg 23 e in_plus_zeros [22:0] $end
$var reg 7 f mantissa [6:0] $end
$var reg 16 g out [15:0] $end
$var reg 23 h twos_in_plus_zeros [22:0] $end
$scope module zero_counter $end
$var wire 16 i s [15:0] $end
$var reg 5 j d [4:0] $end
$var reg 2 k s2 [1:0] $end
$var reg 4 l s4 [3:0] $end
$var reg 8 m s8 [7:0] $end
$upscope $end
$upscope $end
$upscope $end
$scope module stage_zero $end
$var wire 16 n PCchange [15:0] $end
$var wire 1 ! clk $end
$var wire 1 # reset $end
$var wire 1 $ waitFlag $end
$var reg 16 o cycles [15:0] $end
$var reg 1 p firstWait $end
$var reg 16 q instOut [15:0] $end
$var reg 16 r pc [15:0] $end
$var reg 16 s pcStageZero [15:0] $end
$upscope $end
$upscope $end
$upscope $end
$enddefinitions $end
#0
$dumpvars
b0 s
bx r
b10111000000000 q
0p
b0 o
b0 n
bx m
bx l
bx k
bx j
bx i
bx h
bx g
bx f
bx e
b0 d
bx c
bx b
xa
bx `
bx _
bx ^
bx ]
bx \
bx [
bx Z
bx Y
bx X
bx W
b0 V
bx U
bx T
bx S
bx R
b10 Q
0P
bx O
bx N
0M
bx L
bx K
b10111000000000 J
0I
bx H
bx G
bx F
b10111000000000 E
bx D
bx C
0B
xA
bx @
b0 ?
x>
b0 =
b10111000000000 <
bx ;
bx :
bx 9
bx 8
bx 7
b10111000000000 6
bx 5
bx 4
bx 3
b10111000000000 2
bx 1
bx 0
bx /
b10111000000000 .
b10111000000000 -
b10111000000000 ,
bx +
bx *
bx )
b0 (
bx '
x&
bx %
0$
0#
x"
0!
$end
#10
0"
0A
1#
#20
0#
#30
b0 )
b0 4
b0 r
b1 s
b1000100000101 .
b1000100000101 2
b1000100000101 q
0&
bx0 ]
bx00000 \
bx0000000 [
bx0000000 h
bx0000000 e
b1xxxxxxx00000000 W
b1xxxxxxx00000000 Z
1!
#40
0!
#50
b0 /
b0 5
b0 D
b101 *
b101 7
b101 F
b1000100000101 -
b1000100000101 6
b1000100000101 E
b0 8
b1 )
b1 4
b1 r
b10 s
b10000001010 .
b10000001010 2
b10000001010 q
1!
#60
0!
#70
b10 )
b10 4
b10 r
b11 s
b1000100010000 .
b1000100010000 2
b1000100010000 q
b0 *
b0 7
b0 F
1$
b10111000000000 -
b10111000000000 6
b10111000000000 E
b0 9
b101 %
b101 :
b101 O
b1000100000101 ,
b1000100000101 <
b1000100000101 J
bx0xxxxxx00000 \
bx000xxxx0000000 [
0a
b1 k
b101 l
b101 m
b1101 b
b1101 j
b11111111111110110000000 h
b1010000000 e
b1000010100000000 W
b1000010100000000 Z
b101 L
b101 R
b101 `
b101 i
1!
#80
0!
#90
1&
b0 '
b0 1
b0 C
b101 0
b101 3
b101 @
b10111000000000 ,
b10111000000000 <
b10111000000000 J
0$
b1 8
b11 )
b11 4
b11 r
b101 o
b1 s
b10111000000000 .
b10111000000000 2
b10111000000000 q
b10000 b
b10000 j
b0 L
b0 R
b0 `
b0 i
b100000010100000 G
b100000010100000 g
b10000001 c
b100000 f
1!
#100
0!
#110
b1 )
b1 4
b1 r
b100 o
bx 8
b1 9
0&
bx00000000 ]
bx000000000000 \
bx00000000000000 [
b0 G
b0 g
b1000000000000000 W
b1000000000000000 Z
1!
#120
0!
#130
bx 9
b11 o
1!
#140
0!
#150
b10 o
1!
#160
0!
#170
b1 o
1!
#180
0!
#190
b0 o
1!
#200
0!
#210
b10 s
b10000001010 .
b10000001010 2
b10000001010 q
1!
#220
0!
#230
b10 )
b10 4
b10 r
b11 s
b1000100010000 .
b1000100010000 2
b1000100010000 q
b101 /
b101 5
b101 D
b10000001010 -
b10000001010 6
b10000001010 E
b0 8
1!
#240
0!
#250
b10000001010 N
1P
b10000001010 ,
b10000001010 <
b10000001010 J
b0 /
b0 5
b0 D
1$
b10111000000000 -
b10111000000000 6
b10111000000000 E
b1 8
b0 9
b11 )
b11 4
b11 r
b100 s
b10000011010 .
b10000011010 2
b10000011010 q
1!
#260
0!
#270
b100 )
b100 4
b100 r
b101 o
b10 s
b10111000000000 .
b10111000000000 2
b10111000000000 q
0$
b1 9
b10111000000000 ,
b10111000000000 <
b10111000000000 J
1!
#280
0!
#290
bx 8
b10 )
b10 4
b10 r
b100 o
1!
#300
0!
#310
b11 o
bx 9
1!
#320
0!
#330
b10 o
1!
#340
0!
#350
b1 o
1!
#360
0!
#370
b0 o
1!
#380
0!
#390
b11 s
b1000100010000 .
b1000100010000 2
b1000100010000 q
1!
#400
0!
#410
b1000100010000 -
b1000100010000 6
b1000100010000 E
b1 8
b11 )
b11 4
b11 r
b100 s
b10000011010 .
b10000011010 2
b10000011010 q
1!
#420
0!
#430
b100 )
b100 4
b100 r
b101 s
b1000100100000 .
b1000100100000 2
b1000100100000 q
1$
b10111000000000 -
b10111000000000 6
b10111000000000 E
b1 9
b100000010100000 %
b100000010100000 :
b100000010100000 O
b0 N
0P
b1000100010000 ,
b1000100010000 <
b1000100010000 J
bx000000 ]
bx0000000000 \
bx000000000000 [
b100 l
b1000000 m
b1 b
b1 j
b1111110000000x G
b1111110000000x g
b1111110 c
b0x f
b10111111011000000000000 h
b1000000101000000000000 e
b1010000000000000 W
b1010000000000000 Z
b100000010100000 L
b100000010100000 R
b100000010100000 `
b100000010100000 i
1!
#440
0!
#450
1&
b1 '
b1 1
b1 C
b100000010100000 0
b100000010100000 3
b100000010100000 @
b10111000000000 ,
b10111000000000 <
b10111000000000 J
0$
b10 8
b101 )
b101 4
b101 r
b101 o
b11 s
b10111000000000 .
b10111000000000 2
b10111000000000 q
b10000 b
b10000 j
b0 L
b0 R
b0 `
b0 i
b100011010000001 G
b100011010000001 g
b10001101 c
b1 f
1!
#460
0!
#470
b11 )
b11 4
b11 r
b100 o
bx 8
b10 9
0&
bx00000000 ]
bx000000000000 \
bx00000000000000 [
b0 G
b0 g
b1000000000000000 W
b1000000000000000 Z
1!
#480
0!
#490
bx 9
b11 o
1!
#500
0!
#510
b10 o
1!
#520
0!
#530
b1 o
1!
#540
0!
#550
b0 o
1!
#560
0!
#570
b100 s
b10000011010 .
b10000011010 2
b10000011010 q
1!
#580
0!
#590
b100 )
b100 4
b100 r
b101 s
b1000100100000 .
b1000100100000 2
b1000100100000 q
b100000010100000 /
b100000010100000 5
b100000010100000 D
b10000011010 -
b10000011010 6
b10000011010 E
b1 8
1!
#600
0!
#610
b10000011010 N
1P
b10000011010 ,
b10000011010 <
b10000011010 J
b0 /
b0 5
b0 D
b1000100100000 -
b1000100100000 6
b1000100100000 E
b10 8
b1 9
b101 )
b101 4
b101 r
b110 s
b10000101100 .
b10000101100 2
b10000101100 q
1!
#620
0!
#630
b110 )
b110 4
b110 r
b111 s
b1000100111000 .
b1000100111000 2
b1000100111000 q
1$
b10111000000000 -
b10111000000000 6
b10111000000000 E
b10 9
b100000110100000 %
b100000110100000 :
b100000110100000 O
b0 N
0P
b1000100100000 ,
b1000100100000 <
b1000100100000 J
bx000000 ]
bx0000000000 \
bx000000000000 [
b1000001 m
b1 b
b1 j
b1111110000000x G
b1111110000000x g
b1111110 c
b0x f
b10111110011000000000000 h
b1000001101000000000000 e
b1010000000000000 W
b1010000000000000 Z
b100000110100000 L
b100000110100000 R
b100000110100000 `
b100000110100000 i
1!
#640
0!
#650
1&
b10 '
b10 1
b10 C
b100000110100000 0
b100000110100000 3
b100000110100000 @
b10111000000000 ,
b10111000000000 <
b10111000000000 J
0$
b11 8
b111 )
b111 4
b111 r
b101 o
b101 s
b10111000000000 .
b10111000000000 2
b10111000000000 q
b10000 b
b10000 j
b0 L
b0 R
b0 `
b0 i
b100011010000011 G
b100011010000011 g
b10001101 c
b11 f
1!
#660
0!
#670
b101 )
b101 4
b101 r
b100 o
bx 8
b11 9
0&
bx00000000 ]
bx000000000000 \
bx00000000000000 [
b0 G
b0 g
b1000000000000000 W
b1000000000000000 Z
1!
#680
0!
#690
bx 9
b11 o
1!
#700
0!
#710
b10 o
1!
#720
0!
#730
b1 o
1!
#740
0!
#750
b0 o
1!
#760
0!
#770
b110 s
b10000101100 .
b10000101100 2
b10000101100 q
1!
#780
0!
#790
b110 )
b110 4
b110 r
b111 s
b1000100111000 .
b1000100111000 2
b1000100111000 q
b100000110100000 /
b100000110100000 5
b100000110100000 D
b10000101100 -
b10000101100 6
b10000101100 E
b10 8
1!
#800
0!
#810
b10000101100 N
1P
b10000101100 ,
b10000101100 <
b10000101100 J
b0 /
b0 5
b0 D
b1000 *
b1000 7
b1000 F
b1000100111000 -
b1000100111000 6
b1000100111000 E
b11 8
b10 9
b111 )
b111 4
b111 r
b1000 s
b1000110100001 .
b1000110100001 2
b1000110100001 q
1!
#820
0!
#830
b1000 )
b1000 4
b1000 r
b1001 s
b1000110110010 .
b1000110110010 2
b1000110110010 q
b1 *
b1 7
b1 F
b1000110100001 -
b1000110100001 6
b1000110100001 E
b1010 8
b11 9
b100001011001000 %
b100001011001000 :
b100001011001000 O
b0 N
0P
b1000100111000 ,
b1000100111000 <
b1000100111000 J
bx0000 ]
bx00000000 \
bx1x0xx0000000000 [
b1000010 m
b1 b
b1 j
b1111110000000x G
b1111110000000x g
b1111110 c
b0x f
b10111101001110000000000 h
b1000010110010000000000 e
b1100100000000000 W
b1100100000000000 Z
b100001011001000 L
b100001011001000 R
b100001011001000 `
b100001011001000 i
1!
#840
0!
#850
1&
b11 '
b11 1
b11 C
b100001011001000 0
b100001011001000 3
b100001011001000 @
b1 %
b1 :
b1 O
b1000110100001 ,
b1000110100001 <
b1000110100001 J
b10 *
b10 7
b10 F
b1000110110010 -
b1000110110010 6
b1000110110010 E
b1011 8
b1010 9
b1001 )
b1001 4
b1001 r
b1010 s
b1000111010011 .
b1000111010011 2
b1000111010011 q
b1 l
b1111 b
b1111 j
b1 m
b1 L
b1 R
b1 `
b1 i
b100011010000101 G
b100011010000101 g
b10001101 c
b101 f
1!
#860
0!
#870
b1010 )
b1010 4
b1010 r
b1011 s
b1000111100100 .
b1000111100100 2
b1000111100100 q
b11 *
b11 7
b11 F
b1000111010011 -
b1000111010011 6
b1000111010011 E
b1101 8
b1011 9
b10 %
b10 :
b10 O
b1000110110010 ,
b1000110110010 <
b1000110110010 J
b1010 '
b1010 1
b1010 C
b1 0
b1 3
b1 @
1&
bx00 ]
bx00xxxx000000 \
bx0000xx00000000 [
b1110 b
b1110 j
b10 k
b10 l
b10 m
b11111110000000 G
b11111110000000 g
b1111111 c
b0 f
b11111111111111100000000 h
b100000000 e
b1000001000000000 W
b1000001000000000 Z
b10 L
b10 R
b10 `
b10 i
1!
#880
0!
#890
b1011 '
b1011 1
b1011 C
b10 0
b10 3
b10 @
1&
b11 %
b11 :
b11 O
b1000111010011 ,
b1000111010011 <
b1000111010011 J
b100 *
b100 7
b100 F
b1000111100100 -
b1000111100100 6
b1000111100100 E
b1110 8
b1101 9
b1011 )
b1011 4
b1011 r
b1100 s
b10010001000001 .
b10010001000001 2
b10010001000001 q
b11 k
b11 l
b11 m
b11 L
b11 R
b11 `
b11 i
b100000000000000 G
b100000000000000 g
b10000000 c
1!
#900
0!
#910
b1100 )
b1100 4
b1100 r
b1101 s
b1000110100001 .
b1000110100001 2
b1000110100001 q
b100000010100000 *
b100000010100000 7
b100000010100000 F
b10010001000001 -
b10010001000001 6
b10010001000001 E
b100 8
b1110 9
b100 %
b100 :
b100 O
b1000111100100 ,
b1000111100100 <
b1000111100100 J
b1101 '
b1101 1
b1101 C
b11 0
b11 3
b11 @
1&
bx000 ]
bx0xxxx0000000 \
bx000xx000000000 [
b1101 b
b1101 j
b1 k
b100 l
b100 m
b11111111111111000000000 h
b1000000000 e
b1000010000000000 W
b1000010000000000 Z
b100 L
b100 R
b100 `
b100 i
1!
#920
0!
#930
b1110 '
b1110 1
b1110 C
b100 0
b100 3
b100 @
1&
bx %
bx :
bx O
b10010001000001 ,
b10010001000001 <
b10010001000001 J
b1 /
b1 5
b1 D
b1 *
b1 7
b1 F
b1000110100001 -
b1000110100001 6
b1000110100001 E
b1010 8
b100 9
b1101 )
b1101 4
b1101 r
b1110 s
b1000110110010 .
b1000110110010 2
b1000110110010 q
b1 b
b1 j
b1000000 m
b100000010100000 L
b100000010100000 R
b100000010100000 `
b100000010100000 i
b100000010000000 G
b100000010000000 g
b10000001 c
1!
#940
0!
#950
b1110 )
b1110 4
b1110 r
b1111 s
b1000111010011 .
b1000111010011 2
b1000111010011 q
b10 /
b10 5
b10 D
b10 *
b10 7
b10 F
b1000110110010 -
b1000110110010 6
b1000110110010 E
b1011 8
b1010 9
b10 %
b10 :
b10 O
b1000110100001 ,
b1000110100001 <
b1000110100001 J
b100 '
b100 1
b100 C
bx 0
bx 3
bx @
1&
bx0 ]
bx000xxxx00000 \
bx00000xx0000000 [
b1 l
b1111 b
b1111 j
b1 m
b100011010000000 G
b100011010000000 g
b10001101 c
b11111111111111110000000 h
b10000000 e
b1000000100000000 W
b1000000100000000 Z
b1 L
b1 R
b1 `
b1 i
1!
#960
0!
#970
b1010 '
b1010 1
b1010 C
b10 0
b10 3
b10 @
1&
b100 %
b100 :
b100 O
b1000110110010 ,
b1000110110010 <
b1000110110010 J
b11 /
b11 5
b11 D
b11 *
b11 7
b11 F
b1000111010011 -
b1000111010011 6
b1000111010011 E
b1101 8
b1011 9
b1111 )
b1111 4
b1111 r
b10000 s
b1000111100100 .
b1000111100100 2
b1000111100100 q
b1110 b
b1110 j
b10 k
b10 l
b10 m
b10 L
b10 R
b10 `
b10 i
b11111110000000 G
b11111110000000 g
b1111111 c
1!
#980
0!
#990
b10000 )
b10000 4
b10000 r
b10001 s
b10010001010010 .
b10010001010010 2
b10010001010010 q
b100 /
b100 5
b100 D
b100 *
b100 7
b100 F
b1000111100100 -
b1000111100100 6
b1000111100100 E
b1110 8
b1101 9
b110 %
b110 :
b110 O
b1000111010011 ,
b1000111010011 <
b1000111010011 J
b1011 '
b1011 1
b1011 C
b100 0
b100 3
b100 @
1&
bx00xxxxx00000 \
bx0000x1x0000000 [
b11 k
b11 l
b11 m
b100000001000000 G
b100000001000000 g
b10000000 c
b1000000 f
b11111111111111010000000 h
b110000000 e
b1000001100000000 W
b1000001100000000 Z
b11 L
b11 R
b11 `
b11 i
1!
#1000
0!
#1010
b1101 '
b1101 1
b1101 C
b110 0
b110 3
b110 @
1&
b1000 %
b1000 :
b1000 O
b1000111100100 ,
b1000111100100 <
b1000111100100 J
b0 /
b0 5
b0 D
b100000110100000 *
b100000110100000 7
b100000110100000 F
b10010001010010 -
b10010001010010 6
b10010001010010 E
b101 8
b1110 9
b10001 )
b10001 4
b10001 r
b10010 s
b1000110100001 .
b1000110100001 2
b1000110100001 q
b1101 b
b1101 j
b1 k
b100 l
b100 m
b100 L
b100 R
b100 `
b100 i
1!
#1020
0!
#1030
b10010 )
b10010 4
b10010 r
b10011 s
b1000110110010 .
b1000110110010 2
b1000110110010 q
b10 /
b10 5
b10 D
b1 *
b1 7
b1 F
b1000110100001 -
b1000110100001 6
b1000110100001 E
b1010 8
b101 9
bx %
bx :
bx O
b10010001010010 ,
b10010001010010 <
b10010001010010 J
b1110 '
b1110 1
b1110 C
b1000 0
b1000 3
b1000 @
1&
bx000000 ]
bx0000000000 \
bx000000000000 [
b1 b
b1 j
b1000001 m
b100000010000000 G
b100000010000000 g
b10000001 c
b0 f
b10111110011000000000000 h
b1000001101000000000000 e
b1010000000000000 W
b1010000000000000 Z
b100000110100000 L
b100000110100000 R
b100000110100000 `
b100000110100000 i
1!
#1040
0!
#1050
b101 '
b101 1
b101 C
bx 0
bx 3
bx @
1&
b11 %
b11 :
b11 O
b1000110100001 ,
b1000110100001 <
b1000110100001 J
b100 /
b100 5
b100 D
b10 *
b10 7
b10 F
b1000110110010 -
b1000110110010 6
b1000110110010 E
b1011 8
b1010 9
b10011 )
b10011 4
b10011 r
b10100 s
b1000111010011 .
b1000111010011 2
b1000111010011 q
b1 l
b1111 b
b1111 j
b1 m
b1 L
b1 R
b1 `
b1 i
b100011010000011 G
b100011010000011 g
b10001101 c
b11 f
1!
#1060
0!
#1070
b10100 )
b10100 4
b10100 r
b10101 s
b1000111100100 .
b1000111100100 2
b1000111100100 q
b110 /
b110 5
b110 D
b11 *
b11 7
b11 F
b1000111010011 -
b1000111010011 6
b1000111010011 E
b1101 8
b1011 9
b110 %
b110 :
b110 O
b1000110110010 ,
b1000110110010 <
b1000110110010 J
b1010 '
b1010 1
b1010 C
b11 0
b11 3
b11 @
1&
bx00 ]
bx00xxxx000000 \
bx0000xx00000000 [
b1110 b
b1110 j
b10 k
b10 l
b10 m
b11111110000000 G
b11111110000000 g
b1111111 c
b0 f
b11111111111111100000000 h
b100000000 e
b1000001000000000 W
b1000001000000000 Z
b10 L
b10 R
b10 `
b10 i
1!
#1080
0!
#1090
b1011 '
b1011 1
b1011 C
b110 0
b110 3
b110 @
1&
b1001 %
b1001 :
b1001 O
b1000111010011 ,
b1000111010011 <
b1000111010011 J
b1000 /
b1000 5
b1000 D
b100 *
b100 7
b100 F
b1000111100100 -
b1000111100100 6
b1000111100100 E
b1110 8
b1101 9
b10101 )
b10101 4
b10101 r
b10110 s
b10010001100011 .
b10010001100011 2
b10010001100011 q
b11 k
b11 l
b11 m
b11 L
b11 R
b11 `
b11 i
b100000000000000 G
b100000000000000 g
b10000000 c
1!
#1100
0!
#1110
b10110 )
b10110 4
b10110 r
b10111 s
b1000110100001 .
b1000110100001 2
b1000110100001 q
b0 /
b0 5
b0 D
b100001011001000 *
b100001011001000 7
b100001011001000 F
b10010001100011 -
b10010001100011 6
b10010001100011 E
b110 8
b1110 9
b1100 %
b1100 :
b1100 O
b1000111100100 ,
b1000111100100 <
b1000111100100 J
b1101 '
b1101 1
b1101 C
b1001 0
b1001 3
b1001 @
1&
bx000 ]
bx0xxxx0000000 \
bx000xx000000000 [
b1101 b
b1101 j
b1 k
b100 l
b100 m
b11111111111111000000000 h
b1000000000 e
b1000010000000000 W
b1000010000000000 Z
b100 L
b100 R
b100 `
b100 i
1!
#1120
0!
#1130
b1110 '
b1110 1
b1110 C
b1100 0
b1100 3
b1100 @
1&
bx %
bx :
bx O
b10010001100011 ,
b10010001100011 <
b10010001100011 J
b11 /
b11 5
b11 D
b1 *
b1 7
b1 F
b1000110100001 -
b1000110100001 6
b1000110100001 E
b1010 8
b110 9
b10111 )
b10111 4
b10111 r
b11000 s
b1000110110010 .
b1000110110010 2
b1000110110010 q
b1 b
b1 j
b1000010 m
b100001011001000 L
b100001011001000 R
b100001011001000 `
b100001011001000 i
b100000010000000 G
b100000010000000 g
b10000001 c
1!
#1140
0!
#1150
b11000 )
b11000 4
b11000 r
b11001 s
b1000111010011 .
b1000111010011 2
b1000111010011 q
b110 /
b110 5
b110 D
b10 *
b10 7
b10 F
b1000110110010 -
b1000110110010 6
b1000110110010 E
b1011 8
b1010 9
b100 %
b100 :
b100 O
b1000110100001 ,
b1000110100001 <
b1000110100001 J
b110 '
b110 1
b110 C
bx 0
bx 3
bx @
1&
bx0 ]
bx000xxxx00000 \
bx00000xx0000000 [
b1 l
b1111 b
b1111 j
b1 m
b100011010000000 G
b100011010000000 g
b10001101 c
b11111111111111110000000 h
b10000000 e
b1000000100000000 W
b1000000100000000 Z
b1 L
b1 R
b1 `
b1 i
1!
#1160
0!
#1170
b1010 '
b1010 1
b1010 C
b100 0
b100 3
b100 @
1&
b1000 %
b1000 :
b1000 O
b1000110110010 ,
b1000110110010 <
b1000110110010 J
b1001 /
b1001 5
b1001 D
b11 *
b11 7
b11 F
b1000111010011 -
b1000111010011 6
b1000111010011 E
b1101 8
b1011 9
b11001 )
b11001 4
b11001 r
b11010 s
b1000111100100 .
b1000111100100 2
b1000111100100 q
b1110 b
b1110 j
b10 k
b10 l
b10 m
b10 L
b10 R
b10 `
b10 i
b11111110000000 G
b11111110000000 g
b1111111 c
1!
#1180
0!
#1190
b11010 )
b11010 4
b11010 r
b11011 s
bx .
bx 2
bx q
b1100 /
b1100 5
b1100 D
b100 *
b100 7
b100 F
b1000111100100 -
b1000111100100 6
b1000111100100 E
b1110 8
b1101 9
b1100 %
b1100 :
b1100 O
b1000111010011 ,
b1000111010011 <
b1000111010011 J
b1011 '
b1011 1
b1011 C
b1000 0
b1000 3
b1000 @
1&
bx00xxxxx00000 \
bx0000x1x0000000 [
b11 k
b11 l
b11 m
b100000001000000 G
b100000001000000 g
b10000000 c
b1000000 f
b11111111111111010000000 h
b110000000 e
b1000001100000000 W
b1000001100000000 Z
b11 L
b11 R
b11 `
b11 i
1!
#1200
0!
#1210
b1101 '
b1101 1
b1101 C
b1100 0
b1100 3
b1100 @
1&
b10000 %
b10000 :
b10000 O
b1000111100100 ,
b1000111100100 <
b1000111100100 J
bx -
bx 6
bx E
bx 8
b1110 9
b11011 )
b11011 4
b11011 r
b11100 s
b1101 b
b1101 j
b1 k
b100 l
b100 m
b100 L
b100 R
b100 `
b100 i
1!
#1220
0!
#1230
b11100 )
b11100 4
b11100 r
b11101 s
bx 9
bx ,
bx <
bx J
b1110 '
b1110 1
b1110 C
b10000 0
b10000 3
b10000 @
1&
bx000 ]
bx0xxxx0000000 \
bx000xx000000000 [
b100000010000000 G
b100000010000000 g
b10000001 c
b0 f
b11111111111111000000000 h
b1000000000 e
b1000010000000000 W
b1000010000000000 Z
1!
#1240
0!
#1250
x"
1A
0&
b11101 )
b11101 4
b11101 r
b11110 s
1!
