dumpfile.vcd
$date
	Mon Dec 10 13:16:14 2018
$end
$version
	Icarus Verilog
$end
$timescale
	1s
$end
$scope module testbench $end
$scope module PE $end
$var wire 1 ! clk $end
$var wire 1 " pendpc $end
$var wire 1 # pendz $end
$var wire 1 $ reset $end
$var wire 16 % subf_res [15:0] $end
$var wire 16 & recf_res [15:0] $end
$var wire 16 ' mulf_res [15:0] $end
$var wire 16 ( itof_res [15:0] $end
$var wire 16 ) ftoi_res [15:0] $end
$var wire 16 * addf_res [15:0] $end
$var reg 1 + halt $end
$var reg 1 , havepre $end
$var reg 16 - im0 [15:0] $end
$var reg 16 . ir [15:0] $end
$var reg 16 / ir0 [15:0] $end
$var reg 16 0 ir1 [15:0] $end
$var reg 1 1 jump $end
$var reg 16 2 pc [15:0] $end
$var reg 16 3 pc0 [15:0] $end
$var reg 12 4 prefix [11:0] $end
$var reg 16 5 rd1 [15:0] $end
$var reg 16 6 res [15:0] $end
$var reg 16 7 rn1 [15:0] $end
$var reg 16 8 target [15:0] $end
$var reg 16 9 tpc [15:0] $end
$var reg 1 : wait1 $end
$var reg 1 ; wait2 $end
$var reg 1 < zreg $end
$scope function iscond $end
$var reg 16 = inst [15:0] $end
$var reg 1 > iscond $end
$upscope $end
$scope function setspc $end
$var reg 16 ? inst [15:0] $end
$var reg 1 @ setspc $end
$upscope $end
$scope function setsrd $end
$var reg 16 A inst [15:0] $end
$var reg 1 B setsrd $end
$upscope $end
$scope function setsz $end
$var reg 16 C inst [15:0] $end
$var reg 1 D setsz $end
$upscope $end
$scope function usesim $end
$var reg 16 E inst [15:0] $end
$var reg 1 F usesim $end
$upscope $end
$scope function usesrd $end
$var reg 16 G inst [15:0] $end
$var reg 1 H usesrd $end
$upscope $end
$scope function usesrn $end
$var reg 16 I inst [15:0] $end
$var reg 1 J usesrn $end
$upscope $end
$scope module addf_mod $end
$var wire 16 K a [15:0] $end
$var wire 16 L b [15:0] $end
$var wire 1 ! clk $end
$var wire 5 M num_zs [4:0] $end
$var wire 8 N b_man [7:0] $end
$var wire 8 O b_exp [7:0] $end
$var wire 8 P a_man [7:0] $end
$var wire 8 Q a_exp [7:0] $end
$var reg 8 R big_exp [7:0] $end
$var reg 9 S big_man [8:0] $end
$var reg 16 T out [15:0] $end
$var reg 8 U out_exp [7:0] $end
$var reg 7 V out_man [6:0] $end
$var reg 1 W out_sign $end
$var reg 8 X shift_amt [7:0] $end
$var reg 8 Y small_exp [7:0] $end
$var reg 9 Z small_man [8:0] $end
$var reg 9 [ temp_man [8:0] $end
$var reg 9 \ temp_man2 [8:0] $end
$scope module addf_zcount $end
$var wire 16 ] s [15:0] $end
$var reg 5 ^ d [4:0] $end
$var reg 2 _ s2 [1:0] $end
$var reg 4 ` s4 [3:0] $end
$var reg 8 a s8 [7:0] $end
$upscope $end
$upscope $end
$scope module ftoi_mod $end
$var wire 1 ! clk $end
$var wire 16 b in [15:0] $end
$var wire 1 c sign $end
$var reg 16 d exp_less_bias [15:0] $end
$var reg 8 e exponent [7:0] $end
$var reg 23 f left_shift [22:0] $end
$var reg 16 g man_pad [15:0] $end
$var reg 23 h mantissa [22:0] $end
$var reg 16 i out [15:0] $end
$var reg 16 j out_temp [15:0] $end
$upscope $end
$scope module itof_mod $end
$var wire 1 ! clk $end
$var wire 16 k in [15:0] $end
$var wire 16 l zero_count_input [15:0] $end
$var wire 1 m sign $end
$var wire 5 n d [4:0] $end
$var reg 8 o exponent [7:0] $end
$var reg 7 p extra_zeros [6:0] $end
$var reg 23 q in_plus_zeros [22:0] $end
$var reg 7 r mantissa [6:0] $end
$var reg 16 s out [15:0] $end
$var reg 23 t twos_in_plus_zeros [22:0] $end
$scope module zero_counter $end
$var wire 16 u s [15:0] $end
$var reg 5 v d [4:0] $end
$var reg 2 w s2 [1:0] $end
$var reg 4 x s4 [3:0] $end
$var reg 8 y s8 [7:0] $end
$upscope $end
$upscope $end
$scope module mulf_mod $end
$var wire 16 z a [15:0] $end
$var wire 16 { b [15:0] $end
$var wire 1 ! clk $end
$var wire 1 | diff_sign $end
$var reg 16 } out [15:0] $end
$var reg 8 ~ out_exp [7:0] $end
$var reg 7 !" out_man [6:0] $end
$var reg 8 "" temp_exponent [7:0] $end
$var reg 16 #" temp_mantissa [15:0] $end
$upscope $end
$scope module recf_mod $end
$var wire 1 ! clk $end
$var wire 16 $" in [15:0] $end
$var reg 8 %" buff [7:0] $end
$var reg 16 &" out [15:0] $end
$var reg 8 '" out_exp [7:0] $end
$var reg 7 (" out_man [6:0] $end
$upscope $end
$scope module subf_mod $end
$var wire 16 )" a [15:0] $end
$var wire 16 *" b [15:0] $end
$var wire 1 ! clk $end
$var wire 1 +" tog_b_sign $end
$var wire 5 ," num_zs [4:0] $end
$var wire 8 -" b_man [7:0] $end
$var wire 8 ." b_exp [7:0] $end
$var wire 8 /" a_man [7:0] $end
$var wire 8 0" a_exp [7:0] $end
$var reg 8 1" big_exp [7:0] $end
$var reg 9 2" big_man [8:0] $end
$var reg 16 3" out [15:0] $end
$var reg 8 4" out_exp [7:0] $end
$var reg 7 5" out_man [6:0] $end
$var reg 1 6" out_sign $end
$var reg 8 7" shift_amt [7:0] $end
$var reg 8 8" small_exp [7:0] $end
$var reg 9 9" small_man [8:0] $end
$var reg 9 :" temp_man [8:0] $end
$var reg 9 ;" temp_man2 [8:0] $end
$scope module subf_zcount $end
$var wire 16 <" s [15:0] $end
$var reg 5 =" d [4:0] $end
$var reg 2 >" s2 [1:0] $end
$var reg 4 ?" s4 [3:0] $end
$var reg 8 @" s8 [7:0] $end
$upscope $end
$upscope $end
$upscope $end
$upscope $end
$enddefinitions $end
#0
$dumpvars
bx @"
bx ?"
bx >"
b0xxxx ="
bx0000000 <"
bx ;"
bx :"
bx 9"
bx 8"
bx 7"
x6"
bx 5"
bx 4"
bx 3"
b1xxxxxxx 2"
bx 1"
bx 0"
b1xxxxxxx /"
bx ."
b1xxxxxxx -"
b0xxxx ,"
x+"
bx *"
bx )"
bx ("
bx '"
bx &"
bx %"
bx $"
bx #"
bx ""
bx !"
bx ~
bx }
x|
bx {
bx z
bx y
bx x
bx w
bx v
bx u
bx0000000 t
bx s
bx r
bx0000000 q
b0 p
bx o
bx n
xm
bx l
bx k
bx j
bx i
b1xxxxxxx h
b1 g
bx f
bx e
bx d
xc
bx b
bx a
bx `
bx _
b0xxxx ^
bx0000000 ]
bx \
bx [
bx Z
bx Y
bx X
xW
bx V
bx U
bx T
b1xxxxxxx S
bx R
bx Q
b1xxxxxxx P
bx O
b1xxxxxxx N
b0xxxx M
bx L
bx K
xJ
bx I
xH
bx G
xF
bx E
0D
b0 C
0B
b0 A
0@
b0 ?
x>
bx =
x<
x;
x:
bx 9
bx 8
bx 7
bx 6
bx 5
bx 4
bx 3
b0 2
01
b0 0
b0 /
bx .
bx -
0,
0+
bx *
bx )
bx (
bx '
bx &
bx %
0$
0#
0"
0!
$end
#10
1$
#20
0$
#30
b10000 n
b10000 v
b0 l
b0 u
1+"
0|
b0 O
b10000000 N
b0 )
b0 i
b0 j
b0 f
b1111111110000001 d
b10000000 h
b0 e
0c
b0 (
b0 s
0m
b0xxxxxxxxxxxxxxx &
b0xxxxxxxxxxxxxxx &"
b0 ."
b10000000 -"
bx *
bx T
b0 Q
b10000000 P
b100000010000000 '
b100000010000000 }
b0 !"
b10000001 ~
b100000000000000 #"
b0 ""
bx %
bx 3"
b0 0"
b10000000 /"
b0 3
b1 2
b10000000000 4
1,
b0 7
b0 L
b0 b
b0 k
b0 {
b0 $"
b0 *"
b0 5
b0 K
b0 z
b0 )"
0;
0>
b10000000000 =
b10000000000 .
b0 9
0F
b0 E
0:
1J
b0 I
0H
b0 G
1!
#40
0!
#50
b1000100000000 C
1B
b1000100000000 A
b1000100000000 ?
b1 3
b10 2
b1000100000000 /
0,
b100000000000000 -
0F
b0 E
b1000100000000 =
b1000100000000 .
b1 9
1!
#60
0!
#70
b1 w
b100 x
b1000000 y
b1 n
b1 v
b0 C
b0 ?
bx *
bx T
b10000000 O
b10 )
b10 i
b10 j
b100000000 f
b1 d
b10000000 e
b100011010000000 (
b100011010000000 s
b10001101 o
b0 r
b11000000000000000000000 t
b1000000000000000000000 q
b100000000000000 l
b100000000000000 u
b10000000 '
b10000000 }
b1 ~
b10000000 ""
b11111100000000 &
b11111100000000 &"
b0 ("
b0 %"
b1111110 '"
bx %
bx 3"
b10000000 ."
b10 3
b11 2
b0 /
b10000000100 4
1,
b1000100000000 0
b100000000000000 7
b100000000000000 L
b100000000000000 b
b100000000000000 k
b100000000000000 {
b100000000000000 $"
b100000000000000 *"
b10000000100 =
b10000000100 .
b10 9
1F
b1000100000000 E
0J
b1000100000000 I
1H
b1000100000000 G
0B
b0 A
1!
#80
0!
#90
b10000 n
b10000 v
bx *
bx T
b0 O
b0 )
b0 i
b0 j
b0 f
b1111111110000001 d
b0 e
b0 (
b0 s
b0 l
b0 u
b100000010000000 '
b100000010000000 }
b10000001 ~
b0 ""
b11111100000000 &
b11111100000000 &"
bx %
bx 3"
b0 ."
b0 ?
b0 0
b0 7
b0 L
b0 b
b0 k
b0 {
b0 $"
b0 *"
b11 3
b100 2
b10100100000000 /
0,
b100000001000000 -
b0 C
b100000000000000 6
0F
1J
b0 I
0H
b0 G
0B
b0 A
b0 E
b10100100000000 =
b10100100000000 .
b11 9
1!
#100
0!
#110
b0 5"
b1111111 4"
b100000000 ;"
b1 n
b1 v
b10 _
b1010 `
b0 M
b0 ^
b10100000 a
b10 >"
b10 ?"
b10 ,"
b10 ="
b100000 @"
b0 C
0B
b0 A
b0 ?
b10000000 O
b11000000 N
b11 )
b11 i
b11 j
b110000000 f
b1 d
b11000000 h
b10000000 e
b100011010000000 (
b100011010000000 s
b10001101 o
b0 r
b10111111110000000000000 t
b1000000010000000000000 q
b100000001000000 l
b100000001000000 u
b11111010010101 &
b11111010010101 &"
b10101 ("
b101010 %"
b1111101 '"
b10000000 ."
b11000000 -"
b100000010100000 *
b100000010100000 T
b100000 V
b10000001 U
0W
b1010000000000000 ]
b101000000 [
b10000000 Y
b10000000 R
b10000000 Z
b11000000 S
b0 X
b10000000 Q
b100000011000000 '
b100000011000000 }
b1000000 !"
b110000000000000 #"
b1011111110000000 %
b1011111110000000 3"
16"
b10000000000000 <"
b1000000 :"
b10000000 8"
b10000000 1"
b10000000 9"
b11000000 2"
b0 7"
b10000000 0"
b100 3
b101 2
b0 /
1,
b10100100000000 0
b100000001000000 7
b100000001000000 L
b100000001000000 b
b100000001000000 k
b100000001000000 {
b100000001000000 $"
b100000001000000 *"
b100000000000000 5
b100000000000000 K
b100000000000000 z
b100000000000000 )"
b10000000100 =
b10000000100 .
b100 9
1F
b10100100000000 E
0J
b10100100000000 I
1H
b10100100000000 G
1!
#120
0!
#130
b1011100010000000 %
b1011100010000000 3"
b1110001 4"
b1000 `
b10000000 a
b10000 ,"
b10000 ="
b100000010000000 *
b100000010000000 T
b0 V
b1000000000000000 ]
b100000000 [
b10000000 S
b10000000 N
b10 )
b10 i
b10 j
b100000000 f
b10000000 h
b11000000000000000000000 t
b1000000000000000000000 q
b100000000000000 l
b100000000000000 u
b100000010000000 '
b100000010000000 }
b0 !"
b100000000000000 #"
b11111100000000 &
b11111100000000 &"
b0 ("
b0 %"
b1111110 '"
b0 ;"
b0 <"
b0 :"
b10000000 2"
b10000000 -"
b0 ?
b0 0
b100000000000000 7
b100000000000000 L
b100000000000000 b
b100000000000000 k
b100000000000000 {
b100000000000000 $"
b100000000000000 *"
b101 3
b110 2
b1000100010000 /
0,
b0 C
b100000011000000 6
0F
1J
b0 I
0H
b0 G
0B
b0 A
b0 E
b1000100010000 =
b1000100010000 .
b101 9
1!
#140
0!
#150
b0 C
0B
b0 A
b0 ?
b11000000 N
b11 )
b11 i
b11 j
b110000000 f
b11000000 h
b10111111110000000000000 t
b1000000010000000000000 q
b100000001000000 l
b100000001000000 u
b11111010010101 &
b11111010010101 &"
b10101 ("
b101010 %"
b1111101 '"
b11000000 -"
b100000010000000 *
b100000010000000 T
b0 Q
b11000000 '
b11000000 }
b1000000 !"
b1 ~
b110000000000000 #"
b10000000 ""
b1011100010000000 %
b1011100010000000 3"
b0 0"
b110 3
b111 2
b0 /
b10000001000 4
1,
b1000100010000 0
b100000001000000 7
b100000001000000 L
b100000001000000 b
b100000001000000 k
b100000001000000 {
b100000001000000 $"
b100000001000000 *"
b0 5
b0 K
b0 z
b0 )"
b10000001000 =
b10000001000 .
b110 9
1F
b1000100010000 E
0J
b1000100010000 I
1H
b1000100010000 G
1!
#160
0!
#170
b11 _
b1100 `
b11000000 a
b10000001 O
b110 )
b110 i
b110 j
b1100000000 f
b10 d
b10000001 e
b100011010000001 (
b100011010000001 s
b1 r
b10111111010000000000000 t
b1000000110000000000000 q
b100000011000000 l
b100000011000000 u
b11111000010101 &
b11111000010101 &"
b1111100 '"
b10000001 ."
b100000101000000 *
b100000101000000 T
b1000000 V
b10000010 U
b1100000000000000 ]
b110000000 [
b10000001 Y
b10000001 R
b11000000 Z
b11000000 S
b10000001 Q
b11000000 P
b100001000010000 '
b100001000010000 }
b10000 !"
b10000100 ~
b1001000000000000 #"
b10 ""
b1011100100000000 %
b1011100100000000 3"
b1110010 4"
b10000001 8"
b10000001 1"
b11000000 9"
b11000000 2"
b10000001 0"
b11000000 /"
b0 ?
b0 0
b100000011000000 7
b100000011000000 L
b100000011000000 b
b100000011000000 k
b100000011000000 {
b100000011000000 $"
b100000011000000 *"
b100000011000000 5
b100000011000000 K
b100000011000000 z
b100000011000000 )"
b111 3
b1000 2
b10100100010000 /
0,
b100000010000000 -
b0 C
b100000001000000 6
0F
1J
b0 I
0H
b0 G
0B
b0 A
b0 E
b10100100010000 =
b10100100010000 .
b111 9
1!
#180
0!
#190
b1011111110000000 %
b1011111110000000 3"
b1111111 4"
b100000000 ;"
x#
x"
b1 M
b1 ^
b1 _
b111 `
b1110000 a
b1 >"
b1 ?"
b10000 @"
b11 ,"
b11 ="
xD
x@
bx C
xB
bx A
bx ?
b10000000 N
b100 )
b100 i
b100 j
b1000000000 f
b10000000 h
b10111111100000000000000 t
b1000000100000000000000 q
b100000010000000 l
b100000010000000 u
b11111010000000 &
b11111010000000 &"
b0 ("
b0 %"
b1111101 '"
b10000000 -"
b100000011100000 *
b100000011100000 T
b1100000 V
b10000001 U
b111000000000000 ]
b11100000 [
b10000000 Y
b1100000 Z
b10000000 S
b1 X
b10000000 Q
b100000101000000 '
b100000101000000 }
b1000000 !"
b10000010 ~
b110000000000000 #"
b1 ""
b1000000000000 <"
b100000 :"
b10000000 8"
b1100000 9"
b10000000 2"
b1 7"
b10000000 0"
b1000 3
b1001 2
bx /
b10100100010000 0
b100000010000000 7
b100000010000000 L
b100000010000000 b
b100000010000000 k
b100000010000000 {
b100000010000000 $"
b100000010000000 *"
b100000001000000 5
b100000001000000 K
b100000001000000 z
b100000001000000 )"
x>
bx =
bx .
b1000 9
xF
bx E
0J
b10100100010000 I
1H
b10100100010000 G
1!
#200
0!
#210
bx o
bx100000101000000 '
bx100000101000000 }
bx w
bx x
b0xxxx n
b0xxxx v
bx y
x+"
bx _
bx `
b0xxxx M
b0xxxx ^
bx a
x|
bx >"
bx ?"
b0xxxx ,"
b0xxxx ="
bx @"
bx O
b1xxxxxxx N
bx )
bx i
bx j
bx f
bx d
b1xxxxxxx h
bx e
xc
bx0000001 (
bx0000001 s
bx0000000 t
bx0000000 q
xm
bx l
bx u
bx &
bx &"
bx ("
bx %"
bx '"
bx ."
b1xxxxxxx -"
bx *
bx T
bx V
bx U
bx \
xW
bx0000000 ]
bx [
bx Y
bx R
bx Z
b1xxxxxxx S
bx X
bx Q
b1xxxxxxx P
bx #"
bx ""
bx %
bx 3"
bx 5"
bx 4"
bx ;"
x6"
bx0000000 <"
bx :"
bx 8"
bx 1"
bx 9"
b1xxxxxxx 2"
bx 7"
bx 0"
b1xxxxxxx /"
bx 0
bx 7
bx L
bx b
bx k
bx {
bx $"
bx *"
bx 5
bx K
bx z
bx )"
b1001 3
b1010 2
xD
bx C
b100000101000000 6
xJ
bx I
xH
bx G
xB
bx A
b1001 9
1!
#220
0!
#230
b1010 3
b1011 2
1+
b1010 9
1!
