dumpfile.vcd
$date
	Tue Dec  4 14:00:41 2018
$end
$version
	Icarus Verilog
$end
$timescale
	1s
$end
$scope module testbench $end
$scope module PE $end
$var wire 1 ! clk $end
$var wire 1 " pendpc $end
$var wire 1 # pendz $end
$var wire 1 $ reset $end
$var wire 16 % mulf_res [15:0] $end
$var wire 16 & itof_res [15:0] $end
$var wire 16 ' ftoi_res [15:0] $end
$var reg 1 ( halt $end
$var reg 1 ) havepre $end
$var reg 16 * im0 [15:0] $end
$var reg 16 + ir [15:0] $end
$var reg 16 , ir0 [15:0] $end
$var reg 16 - ir1 [15:0] $end
$var reg 1 . jump $end
$var reg 16 / pc [15:0] $end
$var reg 16 0 pc0 [15:0] $end
$var reg 12 1 prefix [11:0] $end
$var reg 16 2 rd1 [15:0] $end
$var reg 16 3 res [15:0] $end
$var reg 16 4 rn1 [15:0] $end
$var reg 16 5 target [15:0] $end
$var reg 16 6 tpc [15:0] $end
$var reg 1 7 wait1 $end
$var reg 1 8 wait2 $end
$var reg 1 9 zreg $end
$scope function iscond $end
$var reg 16 : inst [15:0] $end
$var reg 1 ; iscond $end
$upscope $end
$scope function setspc $end
$var reg 16 < inst [15:0] $end
$var reg 1 = setspc $end
$upscope $end
$scope function setsrd $end
$var reg 16 > inst [15:0] $end
$var reg 1 ? setsrd $end
$upscope $end
$scope function setsz $end
$var reg 16 @ inst [15:0] $end
$var reg 1 A setsz $end
$upscope $end
$scope function usesim $end
$var reg 16 B inst [15:0] $end
$var reg 1 C usesim $end
$upscope $end
$scope function usesrd $end
$var reg 16 D inst [15:0] $end
$var reg 1 E usesrd $end
$upscope $end
$scope function usesrn $end
$var reg 16 F inst [15:0] $end
$var reg 1 G usesrn $end
$upscope $end
$scope module ftoi_mod $end
$var wire 1 ! clk $end
$var wire 16 H in [15:0] $end
$var wire 1 I sign $end
$var reg 16 J exp_less_bias [15:0] $end
$var reg 8 K exponent [7:0] $end
$var reg 23 L left_shift [22:0] $end
$var reg 16 M man_pad [15:0] $end
$var reg 23 N mantissa [22:0] $end
$var reg 16 O out [15:0] $end
$var reg 16 P out_temp [15:0] $end
$upscope $end
$scope module itof_mod $end
$var wire 1 ! clk $end
$var wire 16 Q in [15:0] $end
$var wire 16 R zero_count_input [15:0] $end
$var wire 1 S sign $end
$var wire 5 T d [4:0] $end
$var reg 8 U exponent [7:0] $end
$var reg 7 V extra_zeros [6:0] $end
$var reg 23 W in_plus_zeros [22:0] $end
$var reg 7 X mantissa [6:0] $end
$var reg 16 Y out [15:0] $end
$var reg 23 Z twos_in_plus_zeros [22:0] $end
$scope module zero_counter $end
$var wire 16 [ s [15:0] $end
$var reg 5 \ d [4:0] $end
$var reg 2 ] s2 [1:0] $end
$var reg 4 ^ s4 [3:0] $end
$var reg 8 _ s8 [7:0] $end
$upscope $end
$upscope $end
$scope module mulf_mod $end
$var wire 16 ` a [15:0] $end
$var wire 16 a b [15:0] $end
$var wire 1 ! clk $end
$var wire 1 b diff_sign $end
$var reg 16 c out [15:0] $end
$var reg 8 d out_exp [7:0] $end
$var reg 7 e out_man [6:0] $end
$var reg 8 f temp_exponent [7:0] $end
$var reg 16 g temp_mantissa [15:0] $end
$upscope $end
$upscope $end
$upscope $end
$enddefinitions $end
#0
$dumpvars
bx g
bx f
bx e
bx d
bx c
xb
bx a
bx `
bx _
bx ^
bx ]
bx \
bx [
bx Z
bx Y
bx X
bx W
b0 V
bx U
bx T
xS
bx R
bx Q
bx P
bx O
bx N
b1 M
bx L
bx K
bx J
xI
bx H
xG
bx F
xE
bx D
xC
bx B
0A
b0 @
0?
b0 >
0=
b0 <
x;
bx :
x9
x8
x7
bx 6
bx 5
bx 4
bx 3
bx 2
bx 1
bx 0
b0 /
0.
b0 -
b0 ,
bx +
bx *
0)
0(
bx '
bx &
bx %
0$
0#
0"
0!
$end
#10
1$
#20
0$
#30
b10000 T
b10000 \
b0 R
b0 [
0b
b10011100001011 @
1?
b10011100001011 >
b10011100001011 <
0I
0S
b0 0
b1 /
b10011100001011 ,
b1111111111111011 *
b0 4
b0 H
b0 Q
b0 a
b0 2
b0 `
08
bx0000000 Z
bx0000000 W
b1xxxxxxx N
0;
b10011100001011 :
b10011100001011 +
b0 6
1C
b10011100001011 B
07
1G
b0 F
0E
b0 D
1!
#40
0!
#50
b1 ]
b101 ^
b101 _
b1101 T
b1101 \
1b
1I
1S
b101 R
b101 [
b10011100001011 @
b10011100001011 <
b10011100001011 -
b1111111111111011 4
b1111111111111011 H
b1111111111111011 Q
b1111111111111011 a
b1 0
b10 /
b10011100010101 ,
b101 *
0G
b10011100001011 F
b10011100001011 D
1?
b10011100001011 >
b10011100001011 B
b10011100010101 :
b10011100010101 +
b1 6
b100000100100000 %
b100000100100000 c
b100000 e
b10000010 d
b100000000000000 g
b0 f
b0 '
b0 O
b0 P
b0 L
b1111111110000001 J
b10000000 N
b0 K
b0 &
b0 Y
1!
#60
0!
#70
b0 @
0?
b0 >
b0 <
b1100000010100000 &
b1100000010100000 Y
b10000001 U
b100000 X
b1010000000 Z
b11111111111110110000000 W
b10000000 J
b11111011 N
b11111111 K
b1100000010111110 %
b1100000010111110 c
b111110 e
b10000001 d
b111110110000000 g
b11111111 f
b10 6
17
b0 -
18
1!
#80
0!
#90
08
1!
#100
0!
#110
0b
b0 @
0?
b0 >
b0 <
0I
0S
b10 0
b11 /
b0 ,
b110 1
1)
b10011100010101 -
b101 4
b101 H
b101 Q
b101 a
b110 :
b110 +
b10011100010101 B
07
b10011100010101 F
b10011100010101 D
1!
#120
0!
#130
b10000 T
b10000 \
b0 R
b0 [
b10011100100100 @
b10011100100100 <
b0 4
b0 H
b0 Q
b0 a
b11 0
b100 /
b10011100100100 ,
0)
b1100100 *
b0 -
18
0C
1G
b0 F
b0 D
1?
b10011100100100 >
b0 B
b10011100100100 :
b10011100100100 +
b11 6
b100000100100001 %
b100000100100001 c
b100001 e
b10000010 d
b100001010000000 g
b0 f
b1111111110000001 J
b10000101 N
b0 K
b100000010100000 &
b100000010100000 Y
b11111111111110110000000 Z
b1010000000 W
1!
#140
0!
#150
08
b0 &
b0 Y
b10000000 N
b100000100100000 %
b100000100100000 c
b100000 e
b100000000000000 g
b100 6
17
1!
#160
0!
#170
b110 ^
b1100100 _
b1001 T
b1001 \
b1100100 R
b1100100 [
b10011100100100 -
b1100100 4
b1100100 H
b1100100 Q
b1100100 a
1C
b10011100100100 B
07
0G
b10011100100100 F
b10011100100100 D
1?
b10011100100100 >
1!
#180
0!
#190
b0 @
0?
b0 >
b0 <
b100001011001000 &
b100001011001000 Y
b10000101 U
b1001000 X
b11111111100111000000000 Z
b11001000000000 W
b11100100 N
b100000100111001 %
b100000100111001 c
b111001 e
b111001000000000 g
17
b0 -
18
1!
#200
0!
#210
08
1!
#220
0!
#230
b0 @
0?
b0 >
b0 <
b100 0
b101 /
b0 ,
b111111111001 1
1)
b10011100100100 -
b111111111001 :
b111111111001 +
07
1!
#240
0!
#250
b10000 T
b10000 \
b0 R
b0 [
b10011100111100 @
b10011100111100 <
b0 4
b0 H
b0 Q
b0 a
b101 0
b110 /
b10011100111100 ,
0)
b1111111110011100 *
b0 -
18
0C
1G
b0 F
b0 D
1?
b10011100111100 >
b0 B
b10011100111100 :
b10011100111100 +
b101 6
1!
#260
0!
#270
08
b0 &
b0 Y
b10000000 N
b100000100100000 %
b100000100100000 c
b100000 e
b100000000000000 g
b110 6
17
1!
#280
0!
#290
b1 ]
b110 ^
b1100100 _
b1001 T
b1001 \
1b
1I
1S
b1100100 R
b1100100 [
b10011100111100 -
b1111111110011100 4
b1111111110011100 H
b1111111110011100 Q
b1111111110011100 a
1C
b10011100111100 B
07
0G
b10011100111100 F
b10011100111100 D
1?
b10011100111100 >
1!
#300
0!
#310
b0 @
0?
b0 >
b0 <
b1100001011001000 &
b1100001011001000 Y
b11001000000000 Z
b11111111100111000000000 W
b10000000 J
b10011100 N
b11111111 K
b1100000010100111 %
b1100000010100111 c
b100111 e
b10000001 d
b100111000000000 g
b11111111 f
17
b0 -
18
1!
#320
0!
#330
08
1!
#340
0!
#350
b10011100001011 @
1?
b10011100001011 >
b10011100001011 <
b110 0
b111 /
b10011100001011 ,
b1111111111111011 *
b10011100111100 -
b10011100001011 B
b10011100001011 :
b10011100001011 +
07
1!
#360
0!
#370
b1101 T
b1101 \
b101 ^
b101 _
b101 R
b101 [
b1111111111111011 4
b1111111111111011 H
b1111111111111011 Q
b1111111111111011 a
b111 0
b1000 /
b10011100010101 ,
b101 *
b10011100001011 @
1?
b10011100001011 <
b10011100001011 -
18
b10011100001011 F
b10011100001011 D
b10011100001011 >
b10011100001011 B
b10011100010101 :
b10011100010101 +
b111 6
1!
#380
0!
#390
b0 @
0?
b0 >
b0 <
b1100000010100000 &
b1100000010100000 Y
b10000001 U
b100000 X
b1010000000 Z
b11111111111110110000000 W
b11111011 N
b1100000010111110 %
b1100000010111110 c
b111110 e
b111110110000000 g
b1000 6
17
b0 -
1!
#400
0!
#410
08
1!
#420
0!
#430
0b
b10011100101011 @
1?
b10011100101011 >
b10011100101011 <
0I
0S
b1000 0
b1001 /
b10011100101011 ,
b1111111111111011 *
b10011100010101 -
b101 4
b101 H
b101 Q
b101 a
b10011100101011 :
b10011100101011 +
b10011100101011 B
07
b10011100010101 F
b10011100010101 D
1!
#440
0!
#450
b1 ]
b101 ^
b1101 T
b1101 \
b101 _
1b
1I
1S
b101 R
b101 [
b1111111111111011 4
b1111111111111011 H
b1111111111111011 Q
b1111111111111011 a
b1001 0
b1010 /
b10011100100101 ,
b101 *
b10011100101011 @
1?
b10011100101011 <
b10011100101011 -
18
b10011100101011 F
b10011100101011 D
b10011100101011 >
b10011100101011 B
b10011100100101 :
b10011100100101 +
b1001 6
b100000100100001 %
b100000100100001 c
b100001 e
b10000010 d
b100001010000000 g
b0 f
b1111111110000001 J
b10000101 N
b0 K
b100000010100000 &
b100000010100000 Y
b11111111111110110000000 Z
b1010000000 W
1!
#460
0!
#470
b0 @
0?
b0 >
b0 <
b1100000010100000 &
b1100000010100000 Y
b1010000000 Z
b11111111111110110000000 W
b10000000 J
b11111011 N
b11111111 K
b1100000010111110 %
b1100000010111110 c
b111110 e
b10000001 d
b111110110000000 g
b11111111 f
b1010 6
17
b0 -
1!
#480
0!
#490
08
1!
#500
0!
#510
0b
b10011101001011 @
1?
b10011101001011 >
b10011101001011 <
0I
0S
b1010 0
b1011 /
b10011101001011 ,
b1111111111111011 *
b10011100100101 -
b101 4
b101 H
b101 Q
b101 a
b10011101001011 :
b10011101001011 +
b10011101001011 B
07
b10011100100101 F
b10011100100101 D
1!
#520
0!
#530
b1 ]
b101 ^
b1101 T
b1101 \
b101 _
1b
1I
1S
b101 R
b101 [
b1111111111111011 4
b1111111111111011 H
b1111111111111011 Q
b1111111111111011 a
b1011 0
b1100 /
b10011101010101 ,
b101 *
b10011101001011 @
1?
b10011101001011 <
b10011101001011 -
18
b10011101001011 F
b10011101001011 D
b10011101001011 >
b10011101001011 B
b10011101010101 :
b10011101010101 +
b1011 6
b100000100100001 %
b100000100100001 c
b100001 e
b10000010 d
b100001010000000 g
b0 f
b1111111110000001 J
b10000101 N
b0 K
b100000010100000 &
b100000010100000 Y
b11111111111110110000000 Z
b1010000000 W
1!
#540
0!
#550
b0 @
0?
b0 >
b0 <
b1100000010100000 &
b1100000010100000 Y
b1010000000 Z
b11111111111110110000000 W
b10000000 J
b11111011 N
b11111111 K
b1100000010111110 %
b1100000010111110 c
b111110 e
b10000001 d
b111110110000000 g
b11111111 f
b1100 6
17
b0 -
1!
#560
0!
#570
08
1!
#580
0!
#590
x#
x"
0b
xA
x=
bx @
x?
bx >
bx <
0I
0S
b1100 0
b1101 /
bx ,
b10011101010101 -
b101 4
b101 H
b101 Q
b101 a
xC
x;
bx :
bx +
bx B
07
b10011101010101 F
b10011101010101 D
1!
#600
0!
#610
bx ]
bx ^
b0xxxx T
b0xxxx \
bx _
xb
xI
xS
bx R
bx [
bx 4
bx H
bx Q
bx a
bx 2
bx `
b1101 0
b1110 /
xA
bx @
x=
bx <
bx -
18
xG
bx F
xE
bx D
x?
bx >
b1101 6
b100000100100001 %
b100000100100001 c
b100001 e
b10000010 d
b100001010000000 g
b0 f
b1111111110000001 J
b10000101 N
b0 K
b100000010100000 &
b100000010100000 Y
b11111111111110110000000 Z
b1010000000 W
1!
#620
0!
#630
b1110 0
b1111 /
1(
bx0100000 &
bx0100000 Y
bx U
bx0000000 Z
bx0000000 W
bx '
bx O
bx P
bx L
bx J
b1xxxxxxx N
bx K
bx100000100100001 %
bx100000100100001 c
bx g
bx f
b1110 6
08
1!
